%TF.GenerationSoftware,KiCad,Pcbnew,(5.1.6)-1*%
%TF.CreationDate,2020-08-04T20:17:54-07:00*%
%TF.ProjectId,NixieClock,4e697869-6543-46c6-9f63-6b2e6b696361,rev?*%
%TF.SameCoordinates,Original*%
%TF.FileFunction,Soldermask,Top*%
%TF.FilePolarity,Negative*%
%FSLAX46Y46*%
G04 Gerber Fmt 4.6, Leading zero omitted, Abs format (unit mm)*
G04 Created by KiCad (PCBNEW (5.1.6)-1) date 2020-08-04 20:17:54*
%MOMM*%
%LPD*%
G01*
G04 APERTURE LIST*
%ADD10C,2.000000*%
%ADD11C,7.500000*%
%ADD12C,8.600000*%
%ADD13C,1.100000*%
%ADD14C,2.200000*%
%ADD15R,2.200000X2.200000*%
%ADD16C,1.700000*%
%ADD17C,1.600000*%
%ADD18R,1.600000X1.500000*%
%ADD19C,3.000000*%
G04 APERTURE END LIST*
D10*
%TO.C,N4*%
X212300610Y-42217734D03*
X216613961Y-57363961D03*
X218781243Y-54143090D03*
X219230256Y-50281580D03*
X218247378Y-46736146D03*
X215737149Y-43815795D03*
X208446878Y-42196521D03*
X204989126Y-43745084D03*
X202450612Y-46637151D03*
X201354597Y-50264609D03*
X201863714Y-54082986D03*
X203878968Y-57286179D03*
X207096304Y-59400429D03*
X210836899Y-59987327D03*
D11*
X210250000Y-51000000D03*
%TD*%
D12*
%TO.C,M3*%
X264000000Y-103000000D03*
%TD*%
%TO.C,M4*%
X264000000Y-38000000D03*
%TD*%
%TO.C,M2*%
X45000000Y-103000000D03*
%TD*%
%TO.C,M1*%
X44626200Y-38138000D03*
%TD*%
D13*
%TO.C,J5*%
X41224200Y-78409800D03*
D14*
X43764200Y-78409800D03*
D13*
X41224200Y-80949800D03*
D14*
X43764200Y-80949800D03*
D13*
X41224200Y-83489800D03*
D15*
X43764200Y-83489800D03*
%TD*%
D13*
%TO.C,J4*%
X41186100Y-87604600D03*
D14*
X43726100Y-87604600D03*
D13*
X41186100Y-90144600D03*
D14*
X43726100Y-90144600D03*
D13*
X41186100Y-92684600D03*
D15*
X43726100Y-92684600D03*
%TD*%
%TO.C,R33*%
G36*
G01*
X144756850Y-34879800D02*
X144244350Y-34879800D01*
G75*
G02*
X144025600Y-34661050I0J218750D01*
G01*
X144025600Y-34223550D01*
G75*
G02*
X144244350Y-34004800I218750J0D01*
G01*
X144756850Y-34004800D01*
G75*
G02*
X144975600Y-34223550I0J-218750D01*
G01*
X144975600Y-34661050D01*
G75*
G02*
X144756850Y-34879800I-218750J0D01*
G01*
G37*
G36*
G01*
X144756850Y-36454800D02*
X144244350Y-36454800D01*
G75*
G02*
X144025600Y-36236050I0J218750D01*
G01*
X144025600Y-35798550D01*
G75*
G02*
X144244350Y-35579800I218750J0D01*
G01*
X144756850Y-35579800D01*
G75*
G02*
X144975600Y-35798550I0J-218750D01*
G01*
X144975600Y-36236050D01*
G75*
G02*
X144756850Y-36454800I-218750J0D01*
G01*
G37*
%TD*%
D10*
%TO.C,N5*%
X247300610Y-42217734D03*
X251613961Y-57363961D03*
X253781243Y-54143090D03*
X254230256Y-50281580D03*
X253247378Y-46736146D03*
X250737149Y-43815795D03*
X243446878Y-42196521D03*
X239989126Y-43745084D03*
X237450612Y-46637151D03*
X236354597Y-50264609D03*
X236863714Y-54082986D03*
X238878968Y-57286179D03*
X242096304Y-59400429D03*
X245836899Y-59987327D03*
D11*
X245250000Y-51000000D03*
%TD*%
D10*
%TO.C,N3*%
X173550610Y-42217734D03*
X177863961Y-57363961D03*
X180031243Y-54143090D03*
X180480256Y-50281580D03*
X179497378Y-46736146D03*
X176987149Y-43815795D03*
X169696878Y-42196521D03*
X166239126Y-43745084D03*
X163700612Y-46637151D03*
X162604597Y-50264609D03*
X163113714Y-54082986D03*
X165128968Y-57286179D03*
X168346304Y-59400429D03*
X172086899Y-59987327D03*
D11*
X171500000Y-51000000D03*
%TD*%
D10*
%TO.C,N2*%
X138550610Y-42217734D03*
X142863961Y-57363961D03*
X145031243Y-54143090D03*
X145480256Y-50281580D03*
X144497378Y-46736146D03*
X141987149Y-43815795D03*
X134696878Y-42196521D03*
X131239126Y-43745084D03*
X128700612Y-46637151D03*
X127604597Y-50264609D03*
X128113714Y-54082986D03*
X130128968Y-57286179D03*
X133346304Y-59400429D03*
X137086899Y-59987327D03*
D11*
X136500000Y-51000000D03*
%TD*%
D10*
%TO.C,N1*%
X99800610Y-42217734D03*
X104113961Y-57363961D03*
X106281243Y-54143090D03*
X106730256Y-50281580D03*
X105747378Y-46736146D03*
X103237149Y-43815795D03*
X95946878Y-42196521D03*
X92489126Y-43745084D03*
X89950612Y-46637151D03*
X88854597Y-50264609D03*
X89363714Y-54082986D03*
X91378968Y-57286179D03*
X94596304Y-59400429D03*
X98336899Y-59987327D03*
D11*
X97750000Y-51000000D03*
%TD*%
D10*
%TO.C,N0*%
X64800610Y-42217734D03*
X69113961Y-57363961D03*
X71281243Y-54143090D03*
X71730256Y-50281580D03*
X70747378Y-46736146D03*
X68237149Y-43815795D03*
X60946878Y-42196521D03*
X57489126Y-43745084D03*
X54950612Y-46637151D03*
X53854597Y-50264609D03*
X54363714Y-54082986D03*
X56378968Y-57286179D03*
X59596304Y-59400429D03*
X63336899Y-59987327D03*
D11*
X62750000Y-51000000D03*
%TD*%
%TO.C,R114*%
G36*
G01*
X122654350Y-96666800D02*
X123166850Y-96666800D01*
G75*
G02*
X123385600Y-96885550I0J-218750D01*
G01*
X123385600Y-97323050D01*
G75*
G02*
X123166850Y-97541800I-218750J0D01*
G01*
X122654350Y-97541800D01*
G75*
G02*
X122435600Y-97323050I0J218750D01*
G01*
X122435600Y-96885550D01*
G75*
G02*
X122654350Y-96666800I218750J0D01*
G01*
G37*
G36*
G01*
X122654350Y-95091800D02*
X123166850Y-95091800D01*
G75*
G02*
X123385600Y-95310550I0J-218750D01*
G01*
X123385600Y-95748050D01*
G75*
G02*
X123166850Y-95966800I-218750J0D01*
G01*
X122654350Y-95966800D01*
G75*
G02*
X122435600Y-95748050I0J218750D01*
G01*
X122435600Y-95310550D01*
G75*
G02*
X122654350Y-95091800I218750J0D01*
G01*
G37*
%TD*%
%TO.C,R111*%
G36*
G01*
X101064350Y-104820300D02*
X101576850Y-104820300D01*
G75*
G02*
X101795600Y-105039050I0J-218750D01*
G01*
X101795600Y-105476550D01*
G75*
G02*
X101576850Y-105695300I-218750J0D01*
G01*
X101064350Y-105695300D01*
G75*
G02*
X100845600Y-105476550I0J218750D01*
G01*
X100845600Y-105039050D01*
G75*
G02*
X101064350Y-104820300I218750J0D01*
G01*
G37*
G36*
G01*
X101064350Y-103245300D02*
X101576850Y-103245300D01*
G75*
G02*
X101795600Y-103464050I0J-218750D01*
G01*
X101795600Y-103901550D01*
G75*
G02*
X101576850Y-104120300I-218750J0D01*
G01*
X101064350Y-104120300D01*
G75*
G02*
X100845600Y-103901550I0J218750D01*
G01*
X100845600Y-103464050D01*
G75*
G02*
X101064350Y-103245300I218750J0D01*
G01*
G37*
%TD*%
%TO.C,R110*%
G36*
G01*
X97843630Y-102920280D02*
X98356130Y-102920280D01*
G75*
G02*
X98574880Y-103139030I0J-218750D01*
G01*
X98574880Y-103576530D01*
G75*
G02*
X98356130Y-103795280I-218750J0D01*
G01*
X97843630Y-103795280D01*
G75*
G02*
X97624880Y-103576530I0J218750D01*
G01*
X97624880Y-103139030D01*
G75*
G02*
X97843630Y-102920280I218750J0D01*
G01*
G37*
G36*
G01*
X97843630Y-101345280D02*
X98356130Y-101345280D01*
G75*
G02*
X98574880Y-101564030I0J-218750D01*
G01*
X98574880Y-102001530D01*
G75*
G02*
X98356130Y-102220280I-218750J0D01*
G01*
X97843630Y-102220280D01*
G75*
G02*
X97624880Y-102001530I0J218750D01*
G01*
X97624880Y-101564030D01*
G75*
G02*
X97843630Y-101345280I218750J0D01*
G01*
G37*
%TD*%
%TO.C,R109*%
G36*
G01*
X91344000Y-104803230D02*
X91344000Y-105315730D01*
G75*
G02*
X91125250Y-105534480I-218750J0D01*
G01*
X90687750Y-105534480D01*
G75*
G02*
X90469000Y-105315730I0J218750D01*
G01*
X90469000Y-104803230D01*
G75*
G02*
X90687750Y-104584480I218750J0D01*
G01*
X91125250Y-104584480D01*
G75*
G02*
X91344000Y-104803230I0J-218750D01*
G01*
G37*
G36*
G01*
X92919000Y-104803230D02*
X92919000Y-105315730D01*
G75*
G02*
X92700250Y-105534480I-218750J0D01*
G01*
X92262750Y-105534480D01*
G75*
G02*
X92044000Y-105315730I0J218750D01*
G01*
X92044000Y-104803230D01*
G75*
G02*
X92262750Y-104584480I218750J0D01*
G01*
X92700250Y-104584480D01*
G75*
G02*
X92919000Y-104803230I0J-218750D01*
G01*
G37*
%TD*%
%TO.C,R107*%
G36*
G01*
X92699550Y-85451100D02*
X92187050Y-85451100D01*
G75*
G02*
X91968300Y-85232350I0J218750D01*
G01*
X91968300Y-84794850D01*
G75*
G02*
X92187050Y-84576100I218750J0D01*
G01*
X92699550Y-84576100D01*
G75*
G02*
X92918300Y-84794850I0J-218750D01*
G01*
X92918300Y-85232350D01*
G75*
G02*
X92699550Y-85451100I-218750J0D01*
G01*
G37*
G36*
G01*
X92699550Y-87026100D02*
X92187050Y-87026100D01*
G75*
G02*
X91968300Y-86807350I0J218750D01*
G01*
X91968300Y-86369850D01*
G75*
G02*
X92187050Y-86151100I218750J0D01*
G01*
X92699550Y-86151100D01*
G75*
G02*
X92918300Y-86369850I0J-218750D01*
G01*
X92918300Y-86807350D01*
G75*
G02*
X92699550Y-87026100I-218750J0D01*
G01*
G37*
%TD*%
%TO.C,R102*%
G36*
G01*
X102458000Y-102110250D02*
X102458000Y-101597750D01*
G75*
G02*
X102676750Y-101379000I218750J0D01*
G01*
X103114250Y-101379000D01*
G75*
G02*
X103333000Y-101597750I0J-218750D01*
G01*
X103333000Y-102110250D01*
G75*
G02*
X103114250Y-102329000I-218750J0D01*
G01*
X102676750Y-102329000D01*
G75*
G02*
X102458000Y-102110250I0J218750D01*
G01*
G37*
G36*
G01*
X100883000Y-102110250D02*
X100883000Y-101597750D01*
G75*
G02*
X101101750Y-101379000I218750J0D01*
G01*
X101539250Y-101379000D01*
G75*
G02*
X101758000Y-101597750I0J-218750D01*
G01*
X101758000Y-102110250D01*
G75*
G02*
X101539250Y-102329000I-218750J0D01*
G01*
X101101750Y-102329000D01*
G75*
G02*
X100883000Y-102110250I0J218750D01*
G01*
G37*
%TD*%
%TO.C,R101*%
G36*
G01*
X94259920Y-101516470D02*
X94259920Y-102028970D01*
G75*
G02*
X94041170Y-102247720I-218750J0D01*
G01*
X93603670Y-102247720D01*
G75*
G02*
X93384920Y-102028970I0J218750D01*
G01*
X93384920Y-101516470D01*
G75*
G02*
X93603670Y-101297720I218750J0D01*
G01*
X94041170Y-101297720D01*
G75*
G02*
X94259920Y-101516470I0J-218750D01*
G01*
G37*
G36*
G01*
X95834920Y-101516470D02*
X95834920Y-102028970D01*
G75*
G02*
X95616170Y-102247720I-218750J0D01*
G01*
X95178670Y-102247720D01*
G75*
G02*
X94959920Y-102028970I0J218750D01*
G01*
X94959920Y-101516470D01*
G75*
G02*
X95178670Y-101297720I218750J0D01*
G01*
X95616170Y-101297720D01*
G75*
G02*
X95834920Y-101516470I0J-218750D01*
G01*
G37*
%TD*%
%TO.C,R100*%
G36*
G01*
X91331300Y-103210650D02*
X91331300Y-103723150D01*
G75*
G02*
X91112550Y-103941900I-218750J0D01*
G01*
X90675050Y-103941900D01*
G75*
G02*
X90456300Y-103723150I0J218750D01*
G01*
X90456300Y-103210650D01*
G75*
G02*
X90675050Y-102991900I218750J0D01*
G01*
X91112550Y-102991900D01*
G75*
G02*
X91331300Y-103210650I0J-218750D01*
G01*
G37*
G36*
G01*
X92906300Y-103210650D02*
X92906300Y-103723150D01*
G75*
G02*
X92687550Y-103941900I-218750J0D01*
G01*
X92250050Y-103941900D01*
G75*
G02*
X92031300Y-103723150I0J218750D01*
G01*
X92031300Y-103210650D01*
G75*
G02*
X92250050Y-102991900I218750J0D01*
G01*
X92687550Y-102991900D01*
G75*
G02*
X92906300Y-103210650I0J-218750D01*
G01*
G37*
%TD*%
%TO.C,R99*%
G36*
G01*
X87686400Y-103210650D02*
X87686400Y-103723150D01*
G75*
G02*
X87467650Y-103941900I-218750J0D01*
G01*
X87030150Y-103941900D01*
G75*
G02*
X86811400Y-103723150I0J218750D01*
G01*
X86811400Y-103210650D01*
G75*
G02*
X87030150Y-102991900I218750J0D01*
G01*
X87467650Y-102991900D01*
G75*
G02*
X87686400Y-103210650I0J-218750D01*
G01*
G37*
G36*
G01*
X89261400Y-103210650D02*
X89261400Y-103723150D01*
G75*
G02*
X89042650Y-103941900I-218750J0D01*
G01*
X88605150Y-103941900D01*
G75*
G02*
X88386400Y-103723150I0J218750D01*
G01*
X88386400Y-103210650D01*
G75*
G02*
X88605150Y-102991900I218750J0D01*
G01*
X89042650Y-102991900D01*
G75*
G02*
X89261400Y-103210650I0J-218750D01*
G01*
G37*
%TD*%
%TO.C,R98*%
G36*
G01*
X83264316Y-93525592D02*
X83626709Y-93887984D01*
G75*
G02*
X83626709Y-94197344I-154680J-154680D01*
G01*
X83317350Y-94506703D01*
G75*
G02*
X83007990Y-94506703I-154680J154680D01*
G01*
X82645597Y-94144310D01*
G75*
G02*
X82645597Y-93834950I154680J154680D01*
G01*
X82954956Y-93525591D01*
G75*
G02*
X83264316Y-93525591I154680J-154680D01*
G01*
G37*
G36*
G01*
X84378010Y-92411898D02*
X84740403Y-92774290D01*
G75*
G02*
X84740403Y-93083650I-154680J-154680D01*
G01*
X84431044Y-93393009D01*
G75*
G02*
X84121684Y-93393009I-154680J154680D01*
G01*
X83759291Y-93030616D01*
G75*
G02*
X83759291Y-92721256I154680J154680D01*
G01*
X84068650Y-92411897D01*
G75*
G02*
X84378010Y-92411897I154680J-154680D01*
G01*
G37*
%TD*%
%TO.C,R97*%
G36*
G01*
X88334200Y-91056750D02*
X88334200Y-91569250D01*
G75*
G02*
X88115450Y-91788000I-218750J0D01*
G01*
X87677950Y-91788000D01*
G75*
G02*
X87459200Y-91569250I0J218750D01*
G01*
X87459200Y-91056750D01*
G75*
G02*
X87677950Y-90838000I218750J0D01*
G01*
X88115450Y-90838000D01*
G75*
G02*
X88334200Y-91056750I0J-218750D01*
G01*
G37*
G36*
G01*
X89909200Y-91056750D02*
X89909200Y-91569250D01*
G75*
G02*
X89690450Y-91788000I-218750J0D01*
G01*
X89252950Y-91788000D01*
G75*
G02*
X89034200Y-91569250I0J218750D01*
G01*
X89034200Y-91056750D01*
G75*
G02*
X89252950Y-90838000I218750J0D01*
G01*
X89690450Y-90838000D01*
G75*
G02*
X89909200Y-91056750I0J-218750D01*
G01*
G37*
%TD*%
%TO.C,R96*%
G36*
G01*
X113329300Y-92991650D02*
X113329300Y-92479150D01*
G75*
G02*
X113548050Y-92260400I218750J0D01*
G01*
X113985550Y-92260400D01*
G75*
G02*
X114204300Y-92479150I0J-218750D01*
G01*
X114204300Y-92991650D01*
G75*
G02*
X113985550Y-93210400I-218750J0D01*
G01*
X113548050Y-93210400D01*
G75*
G02*
X113329300Y-92991650I0J218750D01*
G01*
G37*
G36*
G01*
X111754300Y-92991650D02*
X111754300Y-92479150D01*
G75*
G02*
X111973050Y-92260400I218750J0D01*
G01*
X112410550Y-92260400D01*
G75*
G02*
X112629300Y-92479150I0J-218750D01*
G01*
X112629300Y-92991650D01*
G75*
G02*
X112410550Y-93210400I-218750J0D01*
G01*
X111973050Y-93210400D01*
G75*
G02*
X111754300Y-92991650I0J218750D01*
G01*
G37*
%TD*%
%TO.C,R95*%
G36*
G01*
X106526437Y-92616355D02*
X106164044Y-92253963D01*
G75*
G02*
X106164044Y-91944603I154680J154680D01*
G01*
X106473403Y-91635244D01*
G75*
G02*
X106782763Y-91635244I154680J-154680D01*
G01*
X107145156Y-91997637D01*
G75*
G02*
X107145156Y-92306997I-154680J-154680D01*
G01*
X106835797Y-92616356D01*
G75*
G02*
X106526437Y-92616356I-154680J154680D01*
G01*
G37*
G36*
G01*
X105412743Y-93730049D02*
X105050350Y-93367657D01*
G75*
G02*
X105050350Y-93058297I154680J154680D01*
G01*
X105359709Y-92748938D01*
G75*
G02*
X105669069Y-92748938I154680J-154680D01*
G01*
X106031462Y-93111331D01*
G75*
G02*
X106031462Y-93420691I-154680J-154680D01*
G01*
X105722103Y-93730050D01*
G75*
G02*
X105412743Y-93730050I-154680J154680D01*
G01*
G37*
%TD*%
%TO.C,R94*%
G36*
G01*
X103126250Y-92690200D02*
X102613750Y-92690200D01*
G75*
G02*
X102395000Y-92471450I0J218750D01*
G01*
X102395000Y-92033950D01*
G75*
G02*
X102613750Y-91815200I218750J0D01*
G01*
X103126250Y-91815200D01*
G75*
G02*
X103345000Y-92033950I0J-218750D01*
G01*
X103345000Y-92471450D01*
G75*
G02*
X103126250Y-92690200I-218750J0D01*
G01*
G37*
G36*
G01*
X103126250Y-94265200D02*
X102613750Y-94265200D01*
G75*
G02*
X102395000Y-94046450I0J218750D01*
G01*
X102395000Y-93608950D01*
G75*
G02*
X102613750Y-93390200I218750J0D01*
G01*
X103126250Y-93390200D01*
G75*
G02*
X103345000Y-93608950I0J-218750D01*
G01*
X103345000Y-94046450D01*
G75*
G02*
X103126250Y-94265200I-218750J0D01*
G01*
G37*
%TD*%
%TO.C,R93*%
G36*
G01*
X100078250Y-92233000D02*
X99565750Y-92233000D01*
G75*
G02*
X99347000Y-92014250I0J218750D01*
G01*
X99347000Y-91576750D01*
G75*
G02*
X99565750Y-91358000I218750J0D01*
G01*
X100078250Y-91358000D01*
G75*
G02*
X100297000Y-91576750I0J-218750D01*
G01*
X100297000Y-92014250D01*
G75*
G02*
X100078250Y-92233000I-218750J0D01*
G01*
G37*
G36*
G01*
X100078250Y-93808000D02*
X99565750Y-93808000D01*
G75*
G02*
X99347000Y-93589250I0J218750D01*
G01*
X99347000Y-93151750D01*
G75*
G02*
X99565750Y-92933000I218750J0D01*
G01*
X100078250Y-92933000D01*
G75*
G02*
X100297000Y-93151750I0J-218750D01*
G01*
X100297000Y-93589250D01*
G75*
G02*
X100078250Y-93808000I-218750J0D01*
G01*
G37*
%TD*%
%TO.C,R92*%
G36*
G01*
X97004850Y-92207600D02*
X96492350Y-92207600D01*
G75*
G02*
X96273600Y-91988850I0J218750D01*
G01*
X96273600Y-91551350D01*
G75*
G02*
X96492350Y-91332600I218750J0D01*
G01*
X97004850Y-91332600D01*
G75*
G02*
X97223600Y-91551350I0J-218750D01*
G01*
X97223600Y-91988850D01*
G75*
G02*
X97004850Y-92207600I-218750J0D01*
G01*
G37*
G36*
G01*
X97004850Y-93782600D02*
X96492350Y-93782600D01*
G75*
G02*
X96273600Y-93563850I0J218750D01*
G01*
X96273600Y-93126350D01*
G75*
G02*
X96492350Y-92907600I218750J0D01*
G01*
X97004850Y-92907600D01*
G75*
G02*
X97223600Y-93126350I0J-218750D01*
G01*
X97223600Y-93563850D01*
G75*
G02*
X97004850Y-93782600I-218750J0D01*
G01*
G37*
%TD*%
%TO.C,R87*%
G36*
G01*
X82902484Y-91437208D02*
X82540091Y-91074816D01*
G75*
G02*
X82540091Y-90765456I154680J154680D01*
G01*
X82849450Y-90456097D01*
G75*
G02*
X83158810Y-90456097I154680J-154680D01*
G01*
X83521203Y-90818490D01*
G75*
G02*
X83521203Y-91127850I-154680J-154680D01*
G01*
X83211844Y-91437209D01*
G75*
G02*
X82902484Y-91437209I-154680J154680D01*
G01*
G37*
G36*
G01*
X81788790Y-92550902D02*
X81426397Y-92188510D01*
G75*
G02*
X81426397Y-91879150I154680J154680D01*
G01*
X81735756Y-91569791D01*
G75*
G02*
X82045116Y-91569791I154680J-154680D01*
G01*
X82407509Y-91932184D01*
G75*
G02*
X82407509Y-92241544I-154680J-154680D01*
G01*
X82098150Y-92550903D01*
G75*
G02*
X81788790Y-92550903I-154680J154680D01*
G01*
G37*
%TD*%
%TO.C,R81*%
G36*
G01*
X56901600Y-88211950D02*
X56901600Y-88724450D01*
G75*
G02*
X56682850Y-88943200I-218750J0D01*
G01*
X56245350Y-88943200D01*
G75*
G02*
X56026600Y-88724450I0J218750D01*
G01*
X56026600Y-88211950D01*
G75*
G02*
X56245350Y-87993200I218750J0D01*
G01*
X56682850Y-87993200D01*
G75*
G02*
X56901600Y-88211950I0J-218750D01*
G01*
G37*
G36*
G01*
X58476600Y-88211950D02*
X58476600Y-88724450D01*
G75*
G02*
X58257850Y-88943200I-218750J0D01*
G01*
X57820350Y-88943200D01*
G75*
G02*
X57601600Y-88724450I0J218750D01*
G01*
X57601600Y-88211950D01*
G75*
G02*
X57820350Y-87993200I218750J0D01*
G01*
X58257850Y-87993200D01*
G75*
G02*
X58476600Y-88211950I0J-218750D01*
G01*
G37*
%TD*%
%TO.C,R80*%
G36*
G01*
X67748900Y-90794550D02*
X67748900Y-90282050D01*
G75*
G02*
X67967650Y-90063300I218750J0D01*
G01*
X68405150Y-90063300D01*
G75*
G02*
X68623900Y-90282050I0J-218750D01*
G01*
X68623900Y-90794550D01*
G75*
G02*
X68405150Y-91013300I-218750J0D01*
G01*
X67967650Y-91013300D01*
G75*
G02*
X67748900Y-90794550I0J218750D01*
G01*
G37*
G36*
G01*
X66173900Y-90794550D02*
X66173900Y-90282050D01*
G75*
G02*
X66392650Y-90063300I218750J0D01*
G01*
X66830150Y-90063300D01*
G75*
G02*
X67048900Y-90282050I0J-218750D01*
G01*
X67048900Y-90794550D01*
G75*
G02*
X66830150Y-91013300I-218750J0D01*
G01*
X66392650Y-91013300D01*
G75*
G02*
X66173900Y-90794550I0J218750D01*
G01*
G37*
%TD*%
%TO.C,R79*%
G36*
G01*
X71431900Y-90807250D02*
X71431900Y-90294750D01*
G75*
G02*
X71650650Y-90076000I218750J0D01*
G01*
X72088150Y-90076000D01*
G75*
G02*
X72306900Y-90294750I0J-218750D01*
G01*
X72306900Y-90807250D01*
G75*
G02*
X72088150Y-91026000I-218750J0D01*
G01*
X71650650Y-91026000D01*
G75*
G02*
X71431900Y-90807250I0J218750D01*
G01*
G37*
G36*
G01*
X69856900Y-90807250D02*
X69856900Y-90294750D01*
G75*
G02*
X70075650Y-90076000I218750J0D01*
G01*
X70513150Y-90076000D01*
G75*
G02*
X70731900Y-90294750I0J-218750D01*
G01*
X70731900Y-90807250D01*
G75*
G02*
X70513150Y-91026000I-218750J0D01*
G01*
X70075650Y-91026000D01*
G75*
G02*
X69856900Y-90807250I0J218750D01*
G01*
G37*
%TD*%
%TO.C,R78*%
G36*
G01*
X78094550Y-89883500D02*
X77582050Y-89883500D01*
G75*
G02*
X77363300Y-89664750I0J218750D01*
G01*
X77363300Y-89227250D01*
G75*
G02*
X77582050Y-89008500I218750J0D01*
G01*
X78094550Y-89008500D01*
G75*
G02*
X78313300Y-89227250I0J-218750D01*
G01*
X78313300Y-89664750D01*
G75*
G02*
X78094550Y-89883500I-218750J0D01*
G01*
G37*
G36*
G01*
X78094550Y-91458500D02*
X77582050Y-91458500D01*
G75*
G02*
X77363300Y-91239750I0J218750D01*
G01*
X77363300Y-90802250D01*
G75*
G02*
X77582050Y-90583500I218750J0D01*
G01*
X78094550Y-90583500D01*
G75*
G02*
X78313300Y-90802250I0J-218750D01*
G01*
X78313300Y-91239750D01*
G75*
G02*
X78094550Y-91458500I-218750J0D01*
G01*
G37*
%TD*%
%TO.C,R76*%
G36*
G01*
X88945731Y-87133861D02*
X88583338Y-86771469D01*
G75*
G02*
X88583338Y-86462109I154680J154680D01*
G01*
X88892697Y-86152750D01*
G75*
G02*
X89202057Y-86152750I154680J-154680D01*
G01*
X89564450Y-86515143D01*
G75*
G02*
X89564450Y-86824503I-154680J-154680D01*
G01*
X89255091Y-87133862D01*
G75*
G02*
X88945731Y-87133862I-154680J154680D01*
G01*
G37*
G36*
G01*
X87832037Y-88247555D02*
X87469644Y-87885163D01*
G75*
G02*
X87469644Y-87575803I154680J154680D01*
G01*
X87779003Y-87266444D01*
G75*
G02*
X88088363Y-87266444I154680J-154680D01*
G01*
X88450756Y-87628837D01*
G75*
G02*
X88450756Y-87938197I-154680J-154680D01*
G01*
X88141397Y-88247556D01*
G75*
G02*
X87832037Y-88247556I-154680J154680D01*
G01*
G37*
%TD*%
%TO.C,R71*%
G36*
G01*
X188394050Y-88727700D02*
X187881550Y-88727700D01*
G75*
G02*
X187662800Y-88508950I0J218750D01*
G01*
X187662800Y-88071450D01*
G75*
G02*
X187881550Y-87852700I218750J0D01*
G01*
X188394050Y-87852700D01*
G75*
G02*
X188612800Y-88071450I0J-218750D01*
G01*
X188612800Y-88508950D01*
G75*
G02*
X188394050Y-88727700I-218750J0D01*
G01*
G37*
G36*
G01*
X188394050Y-90302700D02*
X187881550Y-90302700D01*
G75*
G02*
X187662800Y-90083950I0J218750D01*
G01*
X187662800Y-89646450D01*
G75*
G02*
X187881550Y-89427700I218750J0D01*
G01*
X188394050Y-89427700D01*
G75*
G02*
X188612800Y-89646450I0J-218750D01*
G01*
X188612800Y-90083950D01*
G75*
G02*
X188394050Y-90302700I-218750J0D01*
G01*
G37*
%TD*%
%TO.C,R70*%
G36*
G01*
X199790800Y-90832650D02*
X199790800Y-90320150D01*
G75*
G02*
X200009550Y-90101400I218750J0D01*
G01*
X200447050Y-90101400D01*
G75*
G02*
X200665800Y-90320150I0J-218750D01*
G01*
X200665800Y-90832650D01*
G75*
G02*
X200447050Y-91051400I-218750J0D01*
G01*
X200009550Y-91051400D01*
G75*
G02*
X199790800Y-90832650I0J218750D01*
G01*
G37*
G36*
G01*
X198215800Y-90832650D02*
X198215800Y-90320150D01*
G75*
G02*
X198434550Y-90101400I218750J0D01*
G01*
X198872050Y-90101400D01*
G75*
G02*
X199090800Y-90320150I0J-218750D01*
G01*
X199090800Y-90832650D01*
G75*
G02*
X198872050Y-91051400I-218750J0D01*
G01*
X198434550Y-91051400D01*
G75*
G02*
X198215800Y-90832650I0J218750D01*
G01*
G37*
%TD*%
%TO.C,R69*%
G36*
G01*
X193960000Y-91259950D02*
X193960000Y-91772450D01*
G75*
G02*
X193741250Y-91991200I-218750J0D01*
G01*
X193303750Y-91991200D01*
G75*
G02*
X193085000Y-91772450I0J218750D01*
G01*
X193085000Y-91259950D01*
G75*
G02*
X193303750Y-91041200I218750J0D01*
G01*
X193741250Y-91041200D01*
G75*
G02*
X193960000Y-91259950I0J-218750D01*
G01*
G37*
G36*
G01*
X195535000Y-91259950D02*
X195535000Y-91772450D01*
G75*
G02*
X195316250Y-91991200I-218750J0D01*
G01*
X194878750Y-91991200D01*
G75*
G02*
X194660000Y-91772450I0J218750D01*
G01*
X194660000Y-91259950D01*
G75*
G02*
X194878750Y-91041200I218750J0D01*
G01*
X195316250Y-91041200D01*
G75*
G02*
X195535000Y-91259950I0J-218750D01*
G01*
G37*
%TD*%
%TO.C,R68*%
G36*
G01*
X205150300Y-90096050D02*
X205150300Y-89583550D01*
G75*
G02*
X205369050Y-89364800I218750J0D01*
G01*
X205806550Y-89364800D01*
G75*
G02*
X206025300Y-89583550I0J-218750D01*
G01*
X206025300Y-90096050D01*
G75*
G02*
X205806550Y-90314800I-218750J0D01*
G01*
X205369050Y-90314800D01*
G75*
G02*
X205150300Y-90096050I0J218750D01*
G01*
G37*
G36*
G01*
X203575300Y-90096050D02*
X203575300Y-89583550D01*
G75*
G02*
X203794050Y-89364800I218750J0D01*
G01*
X204231550Y-89364800D01*
G75*
G02*
X204450300Y-89583550I0J-218750D01*
G01*
X204450300Y-90096050D01*
G75*
G02*
X204231550Y-90314800I-218750J0D01*
G01*
X203794050Y-90314800D01*
G75*
G02*
X203575300Y-90096050I0J218750D01*
G01*
G37*
%TD*%
%TO.C,R67*%
G36*
G01*
X115212150Y-93872700D02*
X115724650Y-93872700D01*
G75*
G02*
X115943400Y-94091450I0J-218750D01*
G01*
X115943400Y-94528950D01*
G75*
G02*
X115724650Y-94747700I-218750J0D01*
G01*
X115212150Y-94747700D01*
G75*
G02*
X114993400Y-94528950I0J218750D01*
G01*
X114993400Y-94091450D01*
G75*
G02*
X115212150Y-93872700I218750J0D01*
G01*
G37*
G36*
G01*
X115212150Y-92297700D02*
X115724650Y-92297700D01*
G75*
G02*
X115943400Y-92516450I0J-218750D01*
G01*
X115943400Y-92953950D01*
G75*
G02*
X115724650Y-93172700I-218750J0D01*
G01*
X115212150Y-93172700D01*
G75*
G02*
X114993400Y-92953950I0J218750D01*
G01*
X114993400Y-92516450D01*
G75*
G02*
X115212150Y-92297700I218750J0D01*
G01*
G37*
%TD*%
D16*
%TO.C,J2*%
X110490000Y-98386900D03*
X107950000Y-98386900D03*
X105410000Y-98386900D03*
X102870000Y-98386900D03*
X100330000Y-98386900D03*
X97790000Y-98386900D03*
X95250000Y-98386900D03*
X92710000Y-98386900D03*
X90170000Y-98386900D03*
X87630000Y-98386900D03*
X85090000Y-98386900D03*
X82550000Y-98386900D03*
X80010000Y-98386900D03*
X77470000Y-98386900D03*
X74930000Y-98386900D03*
X72390000Y-98386900D03*
X69850000Y-98386900D03*
X67310000Y-98386900D03*
X64770000Y-98386900D03*
X62230000Y-98386900D03*
X110490000Y-95846900D03*
X107950000Y-95846900D03*
X105410000Y-95846900D03*
X102870000Y-95846900D03*
X100330000Y-95846900D03*
X97790000Y-95846900D03*
X95250000Y-95846900D03*
X92710000Y-95846900D03*
X90170000Y-95846900D03*
X87630000Y-95846900D03*
X85090000Y-95846900D03*
X82550000Y-95846900D03*
X80010000Y-95846900D03*
X77470000Y-95846900D03*
X74930000Y-95846900D03*
X72390000Y-95846900D03*
X69850000Y-95846900D03*
X67310000Y-95846900D03*
X64770000Y-95846900D03*
G36*
G01*
X61630000Y-94996900D02*
X62830000Y-94996900D01*
G75*
G02*
X63080000Y-95246900I0J-250000D01*
G01*
X63080000Y-96446900D01*
G75*
G02*
X62830000Y-96696900I-250000J0D01*
G01*
X61630000Y-96696900D01*
G75*
G02*
X61380000Y-96446900I0J250000D01*
G01*
X61380000Y-95246900D01*
G75*
G02*
X61630000Y-94996900I250000J0D01*
G01*
G37*
%TD*%
%TO.C,R66*%
G36*
G01*
X266211700Y-47017650D02*
X266211700Y-46505150D01*
G75*
G02*
X266430450Y-46286400I218750J0D01*
G01*
X266867950Y-46286400D01*
G75*
G02*
X267086700Y-46505150I0J-218750D01*
G01*
X267086700Y-47017650D01*
G75*
G02*
X266867950Y-47236400I-218750J0D01*
G01*
X266430450Y-47236400D01*
G75*
G02*
X266211700Y-47017650I0J218750D01*
G01*
G37*
G36*
G01*
X264636700Y-47017650D02*
X264636700Y-46505150D01*
G75*
G02*
X264855450Y-46286400I218750J0D01*
G01*
X265292950Y-46286400D01*
G75*
G02*
X265511700Y-46505150I0J-218750D01*
G01*
X265511700Y-47017650D01*
G75*
G02*
X265292950Y-47236400I-218750J0D01*
G01*
X264855450Y-47236400D01*
G75*
G02*
X264636700Y-47017650I0J218750D01*
G01*
G37*
%TD*%
%TO.C,R65*%
G36*
G01*
X221236250Y-34752800D02*
X220723750Y-34752800D01*
G75*
G02*
X220505000Y-34534050I0J218750D01*
G01*
X220505000Y-34096550D01*
G75*
G02*
X220723750Y-33877800I218750J0D01*
G01*
X221236250Y-33877800D01*
G75*
G02*
X221455000Y-34096550I0J-218750D01*
G01*
X221455000Y-34534050D01*
G75*
G02*
X221236250Y-34752800I-218750J0D01*
G01*
G37*
G36*
G01*
X221236250Y-36327800D02*
X220723750Y-36327800D01*
G75*
G02*
X220505000Y-36109050I0J218750D01*
G01*
X220505000Y-35671550D01*
G75*
G02*
X220723750Y-35452800I218750J0D01*
G01*
X221236250Y-35452800D01*
G75*
G02*
X221455000Y-35671550I0J-218750D01*
G01*
X221455000Y-36109050D01*
G75*
G02*
X221236250Y-36327800I-218750J0D01*
G01*
G37*
%TD*%
%TO.C,R64*%
G36*
G01*
X179758050Y-34905300D02*
X179245550Y-34905300D01*
G75*
G02*
X179026800Y-34686550I0J218750D01*
G01*
X179026800Y-34249050D01*
G75*
G02*
X179245550Y-34030300I218750J0D01*
G01*
X179758050Y-34030300D01*
G75*
G02*
X179976800Y-34249050I0J-218750D01*
G01*
X179976800Y-34686550D01*
G75*
G02*
X179758050Y-34905300I-218750J0D01*
G01*
G37*
G36*
G01*
X179758050Y-36480300D02*
X179245550Y-36480300D01*
G75*
G02*
X179026800Y-36261550I0J218750D01*
G01*
X179026800Y-35824050D01*
G75*
G02*
X179245550Y-35605300I218750J0D01*
G01*
X179758050Y-35605300D01*
G75*
G02*
X179976800Y-35824050I0J-218750D01*
G01*
X179976800Y-36261550D01*
G75*
G02*
X179758050Y-36480300I-218750J0D01*
G01*
G37*
%TD*%
%TO.C,R32*%
G36*
G01*
X106021850Y-34879800D02*
X105509350Y-34879800D01*
G75*
G02*
X105290600Y-34661050I0J218750D01*
G01*
X105290600Y-34223550D01*
G75*
G02*
X105509350Y-34004800I218750J0D01*
G01*
X106021850Y-34004800D01*
G75*
G02*
X106240600Y-34223550I0J-218750D01*
G01*
X106240600Y-34661050D01*
G75*
G02*
X106021850Y-34879800I-218750J0D01*
G01*
G37*
G36*
G01*
X106021850Y-36454800D02*
X105509350Y-36454800D01*
G75*
G02*
X105290600Y-36236050I0J218750D01*
G01*
X105290600Y-35798550D01*
G75*
G02*
X105509350Y-35579800I218750J0D01*
G01*
X106021850Y-35579800D01*
G75*
G02*
X106240600Y-35798550I0J-218750D01*
G01*
X106240600Y-36236050D01*
G75*
G02*
X106021850Y-36454800I-218750J0D01*
G01*
G37*
%TD*%
%TO.C,C11*%
G36*
G01*
X162633950Y-103131100D02*
X163146450Y-103131100D01*
G75*
G02*
X163365200Y-103349850I0J-218750D01*
G01*
X163365200Y-103787350D01*
G75*
G02*
X163146450Y-104006100I-218750J0D01*
G01*
X162633950Y-104006100D01*
G75*
G02*
X162415200Y-103787350I0J218750D01*
G01*
X162415200Y-103349850D01*
G75*
G02*
X162633950Y-103131100I218750J0D01*
G01*
G37*
G36*
G01*
X162633950Y-101556100D02*
X163146450Y-101556100D01*
G75*
G02*
X163365200Y-101774850I0J-218750D01*
G01*
X163365200Y-102212350D01*
G75*
G02*
X163146450Y-102431100I-218750J0D01*
G01*
X162633950Y-102431100D01*
G75*
G02*
X162415200Y-102212350I0J218750D01*
G01*
X162415200Y-101774850D01*
G75*
G02*
X162633950Y-101556100I218750J0D01*
G01*
G37*
%TD*%
%TO.C,C10*%
G36*
G01*
X158315500Y-103505300D02*
X159565500Y-103505300D01*
G75*
G02*
X159815500Y-103755300I0J-250000D01*
G01*
X159815500Y-104505300D01*
G75*
G02*
X159565500Y-104755300I-250000J0D01*
G01*
X158315500Y-104755300D01*
G75*
G02*
X158065500Y-104505300I0J250000D01*
G01*
X158065500Y-103755300D01*
G75*
G02*
X158315500Y-103505300I250000J0D01*
G01*
G37*
G36*
G01*
X158315500Y-100705300D02*
X159565500Y-100705300D01*
G75*
G02*
X159815500Y-100955300I0J-250000D01*
G01*
X159815500Y-101705300D01*
G75*
G02*
X159565500Y-101955300I-250000J0D01*
G01*
X158315500Y-101955300D01*
G75*
G02*
X158065500Y-101705300I0J250000D01*
G01*
X158065500Y-100955300D01*
G75*
G02*
X158315500Y-100705300I250000J0D01*
G01*
G37*
%TD*%
%TO.C,C9*%
G36*
G01*
X145818700Y-103784700D02*
X147068700Y-103784700D01*
G75*
G02*
X147318700Y-104034700I0J-250000D01*
G01*
X147318700Y-104784700D01*
G75*
G02*
X147068700Y-105034700I-250000J0D01*
G01*
X145818700Y-105034700D01*
G75*
G02*
X145568700Y-104784700I0J250000D01*
G01*
X145568700Y-104034700D01*
G75*
G02*
X145818700Y-103784700I250000J0D01*
G01*
G37*
G36*
G01*
X145818700Y-100984700D02*
X147068700Y-100984700D01*
G75*
G02*
X147318700Y-101234700I0J-250000D01*
G01*
X147318700Y-101984700D01*
G75*
G02*
X147068700Y-102234700I-250000J0D01*
G01*
X145818700Y-102234700D01*
G75*
G02*
X145568700Y-101984700I0J250000D01*
G01*
X145568700Y-101234700D01*
G75*
G02*
X145818700Y-100984700I250000J0D01*
G01*
G37*
%TD*%
D13*
%TO.C,J3*%
X214579200Y-105359200D03*
D14*
X214579200Y-102819200D03*
D13*
X217119200Y-105359200D03*
X217119200Y-102819200D03*
X219659200Y-105359200D03*
D15*
X219659200Y-102819200D03*
%TD*%
%TO.C,R11*%
G36*
G01*
X88185684Y-34960308D02*
X87823291Y-34597916D01*
G75*
G02*
X87823291Y-34288556I154680J154680D01*
G01*
X88132650Y-33979197D01*
G75*
G02*
X88442010Y-33979197I154680J-154680D01*
G01*
X88804403Y-34341590D01*
G75*
G02*
X88804403Y-34650950I-154680J-154680D01*
G01*
X88495044Y-34960309D01*
G75*
G02*
X88185684Y-34960309I-154680J154680D01*
G01*
G37*
G36*
G01*
X87071990Y-36074002D02*
X86709597Y-35711610D01*
G75*
G02*
X86709597Y-35402250I154680J154680D01*
G01*
X87018956Y-35092891D01*
G75*
G02*
X87328316Y-35092891I154680J-154680D01*
G01*
X87690709Y-35455284D01*
G75*
G02*
X87690709Y-35764644I-154680J-154680D01*
G01*
X87381350Y-36074003D01*
G75*
G02*
X87071990Y-36074003I-154680J154680D01*
G01*
G37*
%TD*%
D17*
%TO.C,J1*%
X240408700Y-92786200D03*
X242908700Y-92786200D03*
X244908700Y-92786200D03*
D18*
X247408700Y-92786200D03*
D19*
X237338700Y-95496200D03*
X250478700Y-95496200D03*
%TD*%
%TO.C,C3*%
G36*
G01*
X149464050Y-103499400D02*
X149976550Y-103499400D01*
G75*
G02*
X150195300Y-103718150I0J-218750D01*
G01*
X150195300Y-104155650D01*
G75*
G02*
X149976550Y-104374400I-218750J0D01*
G01*
X149464050Y-104374400D01*
G75*
G02*
X149245300Y-104155650I0J218750D01*
G01*
X149245300Y-103718150D01*
G75*
G02*
X149464050Y-103499400I218750J0D01*
G01*
G37*
G36*
G01*
X149464050Y-101924400D02*
X149976550Y-101924400D01*
G75*
G02*
X150195300Y-102143150I0J-218750D01*
G01*
X150195300Y-102580650D01*
G75*
G02*
X149976550Y-102799400I-218750J0D01*
G01*
X149464050Y-102799400D01*
G75*
G02*
X149245300Y-102580650I0J218750D01*
G01*
X149245300Y-102143150D01*
G75*
G02*
X149464050Y-101924400I218750J0D01*
G01*
G37*
%TD*%
%TO.C,C1*%
G36*
G01*
X152423150Y-103499400D02*
X152935650Y-103499400D01*
G75*
G02*
X153154400Y-103718150I0J-218750D01*
G01*
X153154400Y-104155650D01*
G75*
G02*
X152935650Y-104374400I-218750J0D01*
G01*
X152423150Y-104374400D01*
G75*
G02*
X152204400Y-104155650I0J218750D01*
G01*
X152204400Y-103718150D01*
G75*
G02*
X152423150Y-103499400I218750J0D01*
G01*
G37*
G36*
G01*
X152423150Y-101924400D02*
X152935650Y-101924400D01*
G75*
G02*
X153154400Y-102143150I0J-218750D01*
G01*
X153154400Y-102580650D01*
G75*
G02*
X152935650Y-102799400I-218750J0D01*
G01*
X152423150Y-102799400D01*
G75*
G02*
X152204400Y-102580650I0J218750D01*
G01*
X152204400Y-102143150D01*
G75*
G02*
X152423150Y-101924400I218750J0D01*
G01*
G37*
%TD*%
M02*
