(module Inductor_Wurth_HCM-7373 (layer F.Cu) (tedit 595FEAF6)
  (descr "Inductor, Wurth Elektronik, Wurth_HCM-7070, 7.3mmx7.3mm")
  (tags "inductor wurth hcm smd")
  (attr smd)
  (fp_text reference L4 (at 0 -4.6) (layer F.SilkS)
    (effects (font (size 1 1) (thickness 0.15)))
  )
  (fp_text value "Wurth HCM-7373" (at 0 5.1) (layer F.Fab)
    (effects (font (size 1 1) (thickness 0.15)))
  )
  (fp_text user %R (at 0 -4.6) (layer F.Fab)
    (effects (font (size 1 1) (thickness 0.15)))
  )
  (fp_line (start -4.1 -3.95) (end -4.1 3.95) (layer F.CrtYd) (width 0.05))
  (fp_line (start -4.1 3.95) (end 4.1 3.95) (layer F.CrtYd) (width 0.05))
  (fp_line (start 4.1 3.95) (end 4.1 -3.95) (layer F.CrtYd) (width 0.05))
  (fp_line (start 4.1 -3.95) (end -4.1 -3.95) (layer F.CrtYd) (width 0.05))
  (fp_line (start -3.7 -3.6) (end -3.7 3.6) (layer F.Fab) (width 0.15))
  (fp_line (start -3.7 3.6) (end 3.7 3.6) (layer F.Fab) (width 0.15))
  (fp_line (start 3.7 3.6) (end 3.7 -3.6) (layer F.Fab) (width 0.15))
  (fp_line (start 3.7 -3.6) (end -3.7 -3.6) (layer F.Fab) (width 0.15))
  (fp_line (start -3.8 -1.4) (end -3.8 -3.7) (layer F.SilkS) (width 0.15))
  (fp_line (start -3.8 -3.7) (end 0 -3.7) (layer F.SilkS) (width 0.15))
  (fp_line (start 3.8 -1.4) (end 3.8 -3.7) (layer F.SilkS) (width 0.15))
  (fp_line (start 3.8 -3.7) (end 0 -3.7) (layer F.SilkS) (width 0.15))
  (fp_line (start 3.8 1.4) (end 3.8 3.7) (layer F.SilkS) (width 0.15))
  (fp_line (start 3.8 3.7) (end 0 3.7) (layer F.SilkS) (width 0.15))
  (fp_line (start -3.8 1.4) (end -3.8 3.7) (layer F.SilkS) (width 0.15))
  (fp_line (start -3.8 3.7) (end 0 3.7) (layer F.SilkS) (width 0.15))
  (pad 2 smd rect (at 3.2 0) (size 1.6 2.2) (layers F.Cu F.Paste F.Mask))
  (pad 1 smd rect (at -3.2 0) (size 1.6 2.2) (layers F.Cu F.Paste F.Mask))
  (model Inductors.3dshapes/Inductor_Wurth_HCM-7070.wrl
    (at (xyz 0 0 0))
    (scale (xyz 1 1 1))
    (rotate (xyz 0 0 0))
  )
  (model Inductors.3dshapes/SELF-WE-TPC_M.wrl
    (at (xyz 0 0 0))
    (scale (xyz 1 1 1))
    (rotate (xyz 0 0 0))
  )
)
