%TF.GenerationSoftware,KiCad,Pcbnew,(5.1.6)-1*%
%TF.CreationDate,2020-07-09T21:30:03-07:00*%
%TF.ProjectId,NixieClock,4e697869-6543-46c6-9f63-6b2e6b696361,rev?*%
%TF.SameCoordinates,Original*%
%TF.FileFunction,Soldermask,Bot*%
%TF.FilePolarity,Negative*%
%FSLAX46Y46*%
G04 Gerber Fmt 4.6, Leading zero omitted, Abs format (unit mm)*
G04 Created by KiCad (PCBNEW (5.1.6)-1) date 2020-07-09 21:30:03*
%MOMM*%
%LPD*%
G01*
G04 APERTURE LIST*
%ADD10C,1.700000*%
%ADD11C,11.000000*%
%ADD12C,5.000000*%
%ADD13R,1.060000X0.650000*%
%ADD14C,1.100000*%
%ADD15C,2.200000*%
%ADD16R,2.200000X2.200000*%
%ADD17R,0.600000X1.400000*%
%ADD18C,1.600000*%
%ADD19R,1.600000X1.500000*%
%ADD20C,3.000000*%
G04 APERTURE END LIST*
%TO.C,R43*%
G36*
G01*
X174317950Y-75661000D02*
X174830450Y-75661000D01*
G75*
G02*
X175049200Y-75879750I0J-218750D01*
G01*
X175049200Y-76317250D01*
G75*
G02*
X174830450Y-76536000I-218750J0D01*
G01*
X174317950Y-76536000D01*
G75*
G02*
X174099200Y-76317250I0J218750D01*
G01*
X174099200Y-75879750D01*
G75*
G02*
X174317950Y-75661000I218750J0D01*
G01*
G37*
G36*
G01*
X174317950Y-74086000D02*
X174830450Y-74086000D01*
G75*
G02*
X175049200Y-74304750I0J-218750D01*
G01*
X175049200Y-74742250D01*
G75*
G02*
X174830450Y-74961000I-218750J0D01*
G01*
X174317950Y-74961000D01*
G75*
G02*
X174099200Y-74742250I0J218750D01*
G01*
X174099200Y-74304750D01*
G75*
G02*
X174317950Y-74086000I218750J0D01*
G01*
G37*
%TD*%
%TO.C,R113*%
G36*
G01*
X128301100Y-95628750D02*
X128301100Y-96141250D01*
G75*
G02*
X128082350Y-96360000I-218750J0D01*
G01*
X127644850Y-96360000D01*
G75*
G02*
X127426100Y-96141250I0J218750D01*
G01*
X127426100Y-95628750D01*
G75*
G02*
X127644850Y-95410000I218750J0D01*
G01*
X128082350Y-95410000D01*
G75*
G02*
X128301100Y-95628750I0J-218750D01*
G01*
G37*
G36*
G01*
X129876100Y-95628750D02*
X129876100Y-96141250D01*
G75*
G02*
X129657350Y-96360000I-218750J0D01*
G01*
X129219850Y-96360000D01*
G75*
G02*
X129001100Y-96141250I0J218750D01*
G01*
X129001100Y-95628750D01*
G75*
G02*
X129219850Y-95410000I218750J0D01*
G01*
X129657350Y-95410000D01*
G75*
G02*
X129876100Y-95628750I0J-218750D01*
G01*
G37*
%TD*%
%TO.C,R112*%
G36*
G01*
X136751350Y-98063800D02*
X137263850Y-98063800D01*
G75*
G02*
X137482600Y-98282550I0J-218750D01*
G01*
X137482600Y-98720050D01*
G75*
G02*
X137263850Y-98938800I-218750J0D01*
G01*
X136751350Y-98938800D01*
G75*
G02*
X136532600Y-98720050I0J218750D01*
G01*
X136532600Y-98282550D01*
G75*
G02*
X136751350Y-98063800I218750J0D01*
G01*
G37*
G36*
G01*
X136751350Y-96488800D02*
X137263850Y-96488800D01*
G75*
G02*
X137482600Y-96707550I0J-218750D01*
G01*
X137482600Y-97145050D01*
G75*
G02*
X137263850Y-97363800I-218750J0D01*
G01*
X136751350Y-97363800D01*
G75*
G02*
X136532600Y-97145050I0J218750D01*
G01*
X136532600Y-96707550D01*
G75*
G02*
X136751350Y-96488800I218750J0D01*
G01*
G37*
%TD*%
%TO.C,R108*%
G36*
G01*
X138183100Y-88368850D02*
X138183100Y-87856350D01*
G75*
G02*
X138401850Y-87637600I218750J0D01*
G01*
X138839350Y-87637600D01*
G75*
G02*
X139058100Y-87856350I0J-218750D01*
G01*
X139058100Y-88368850D01*
G75*
G02*
X138839350Y-88587600I-218750J0D01*
G01*
X138401850Y-88587600D01*
G75*
G02*
X138183100Y-88368850I0J218750D01*
G01*
G37*
G36*
G01*
X136608100Y-88368850D02*
X136608100Y-87856350D01*
G75*
G02*
X136826850Y-87637600I218750J0D01*
G01*
X137264350Y-87637600D01*
G75*
G02*
X137483100Y-87856350I0J-218750D01*
G01*
X137483100Y-88368850D01*
G75*
G02*
X137264350Y-88587600I-218750J0D01*
G01*
X136826850Y-88587600D01*
G75*
G02*
X136608100Y-88368850I0J218750D01*
G01*
G37*
%TD*%
%TO.C,R106*%
G36*
G01*
X106598200Y-86768650D02*
X106598200Y-86256150D01*
G75*
G02*
X106816950Y-86037400I218750J0D01*
G01*
X107254450Y-86037400D01*
G75*
G02*
X107473200Y-86256150I0J-218750D01*
G01*
X107473200Y-86768650D01*
G75*
G02*
X107254450Y-86987400I-218750J0D01*
G01*
X106816950Y-86987400D01*
G75*
G02*
X106598200Y-86768650I0J218750D01*
G01*
G37*
G36*
G01*
X105023200Y-86768650D02*
X105023200Y-86256150D01*
G75*
G02*
X105241950Y-86037400I218750J0D01*
G01*
X105679450Y-86037400D01*
G75*
G02*
X105898200Y-86256150I0J-218750D01*
G01*
X105898200Y-86768650D01*
G75*
G02*
X105679450Y-86987400I-218750J0D01*
G01*
X105241950Y-86987400D01*
G75*
G02*
X105023200Y-86768650I0J218750D01*
G01*
G37*
%TD*%
%TO.C,R105*%
G36*
G01*
X119230716Y-96535492D02*
X119593109Y-96897884D01*
G75*
G02*
X119593109Y-97207244I-154680J-154680D01*
G01*
X119283750Y-97516603D01*
G75*
G02*
X118974390Y-97516603I-154680J154680D01*
G01*
X118611997Y-97154210D01*
G75*
G02*
X118611997Y-96844850I154680J154680D01*
G01*
X118921356Y-96535491D01*
G75*
G02*
X119230716Y-96535491I154680J-154680D01*
G01*
G37*
G36*
G01*
X120344410Y-95421798D02*
X120706803Y-95784190D01*
G75*
G02*
X120706803Y-96093550I-154680J-154680D01*
G01*
X120397444Y-96402909D01*
G75*
G02*
X120088084Y-96402909I-154680J154680D01*
G01*
X119725691Y-96040516D01*
G75*
G02*
X119725691Y-95731156I154680J154680D01*
G01*
X120035050Y-95421797D01*
G75*
G02*
X120344410Y-95421797I154680J-154680D01*
G01*
G37*
%TD*%
%TO.C,R104*%
G36*
G01*
X118568363Y-99839445D02*
X118930756Y-100201837D01*
G75*
G02*
X118930756Y-100511197I-154680J-154680D01*
G01*
X118621397Y-100820556D01*
G75*
G02*
X118312037Y-100820556I-154680J154680D01*
G01*
X117949644Y-100458163D01*
G75*
G02*
X117949644Y-100148803I154680J154680D01*
G01*
X118259003Y-99839444D01*
G75*
G02*
X118568363Y-99839444I154680J-154680D01*
G01*
G37*
G36*
G01*
X119682057Y-98725751D02*
X120044450Y-99088143D01*
G75*
G02*
X120044450Y-99397503I-154680J-154680D01*
G01*
X119735091Y-99706862D01*
G75*
G02*
X119425731Y-99706862I-154680J154680D01*
G01*
X119063338Y-99344469D01*
G75*
G02*
X119063338Y-99035109I154680J154680D01*
G01*
X119372697Y-98725750D01*
G75*
G02*
X119682057Y-98725750I154680J-154680D01*
G01*
G37*
%TD*%
%TO.C,R103*%
G36*
G01*
X130231400Y-99286350D02*
X130231400Y-99798850D01*
G75*
G02*
X130012650Y-100017600I-218750J0D01*
G01*
X129575150Y-100017600D01*
G75*
G02*
X129356400Y-99798850I0J218750D01*
G01*
X129356400Y-99286350D01*
G75*
G02*
X129575150Y-99067600I218750J0D01*
G01*
X130012650Y-99067600D01*
G75*
G02*
X130231400Y-99286350I0J-218750D01*
G01*
G37*
G36*
G01*
X131806400Y-99286350D02*
X131806400Y-99798850D01*
G75*
G02*
X131587650Y-100017600I-218750J0D01*
G01*
X131150150Y-100017600D01*
G75*
G02*
X130931400Y-99798850I0J218750D01*
G01*
X130931400Y-99286350D01*
G75*
G02*
X131150150Y-99067600I218750J0D01*
G01*
X131587650Y-99067600D01*
G75*
G02*
X131806400Y-99286350I0J-218750D01*
G01*
G37*
%TD*%
%TO.C,R91*%
G36*
G01*
X143735484Y-92542108D02*
X143373091Y-92179716D01*
G75*
G02*
X143373091Y-91870356I154680J154680D01*
G01*
X143682450Y-91560997D01*
G75*
G02*
X143991810Y-91560997I154680J-154680D01*
G01*
X144354203Y-91923390D01*
G75*
G02*
X144354203Y-92232750I-154680J-154680D01*
G01*
X144044844Y-92542109D01*
G75*
G02*
X143735484Y-92542109I-154680J154680D01*
G01*
G37*
G36*
G01*
X142621790Y-93655802D02*
X142259397Y-93293410D01*
G75*
G02*
X142259397Y-92984050I154680J154680D01*
G01*
X142568756Y-92674691D01*
G75*
G02*
X142878116Y-92674691I154680J-154680D01*
G01*
X143240509Y-93037084D01*
G75*
G02*
X143240509Y-93346444I-154680J-154680D01*
G01*
X142931150Y-93655803D01*
G75*
G02*
X142621790Y-93655803I-154680J154680D01*
G01*
G37*
%TD*%
%TO.C,R90*%
G36*
G01*
X140486237Y-90457355D02*
X140123844Y-90094963D01*
G75*
G02*
X140123844Y-89785603I154680J154680D01*
G01*
X140433203Y-89476244D01*
G75*
G02*
X140742563Y-89476244I154680J-154680D01*
G01*
X141104956Y-89838637D01*
G75*
G02*
X141104956Y-90147997I-154680J-154680D01*
G01*
X140795597Y-90457356D01*
G75*
G02*
X140486237Y-90457356I-154680J154680D01*
G01*
G37*
G36*
G01*
X139372543Y-91571049D02*
X139010150Y-91208657D01*
G75*
G02*
X139010150Y-90899297I154680J154680D01*
G01*
X139319509Y-90589938D01*
G75*
G02*
X139628869Y-90589938I154680J-154680D01*
G01*
X139991262Y-90952331D01*
G75*
G02*
X139991262Y-91261691I-154680J-154680D01*
G01*
X139681903Y-91571050D01*
G75*
G02*
X139372543Y-91571050I-154680J154680D01*
G01*
G37*
%TD*%
%TO.C,R89*%
G36*
G01*
X113288560Y-91289850D02*
X113288560Y-90777350D01*
G75*
G02*
X113507310Y-90558600I218750J0D01*
G01*
X113944810Y-90558600D01*
G75*
G02*
X114163560Y-90777350I0J-218750D01*
G01*
X114163560Y-91289850D01*
G75*
G02*
X113944810Y-91508600I-218750J0D01*
G01*
X113507310Y-91508600D01*
G75*
G02*
X113288560Y-91289850I0J218750D01*
G01*
G37*
G36*
G01*
X111713560Y-91289850D02*
X111713560Y-90777350D01*
G75*
G02*
X111932310Y-90558600I218750J0D01*
G01*
X112369810Y-90558600D01*
G75*
G02*
X112588560Y-90777350I0J-218750D01*
G01*
X112588560Y-91289850D01*
G75*
G02*
X112369810Y-91508600I-218750J0D01*
G01*
X111932310Y-91508600D01*
G75*
G02*
X111713560Y-91289850I0J218750D01*
G01*
G37*
%TD*%
%TO.C,R88*%
G36*
G01*
X109989200Y-89435650D02*
X109989200Y-88923150D01*
G75*
G02*
X110207950Y-88704400I218750J0D01*
G01*
X110645450Y-88704400D01*
G75*
G02*
X110864200Y-88923150I0J-218750D01*
G01*
X110864200Y-89435650D01*
G75*
G02*
X110645450Y-89654400I-218750J0D01*
G01*
X110207950Y-89654400D01*
G75*
G02*
X109989200Y-89435650I0J218750D01*
G01*
G37*
G36*
G01*
X108414200Y-89435650D02*
X108414200Y-88923150D01*
G75*
G02*
X108632950Y-88704400I218750J0D01*
G01*
X109070450Y-88704400D01*
G75*
G02*
X109289200Y-88923150I0J-218750D01*
G01*
X109289200Y-89435650D01*
G75*
G02*
X109070450Y-89654400I-218750J0D01*
G01*
X108632950Y-89654400D01*
G75*
G02*
X108414200Y-89435650I0J218750D01*
G01*
G37*
%TD*%
%TO.C,R86*%
G36*
G01*
X81401931Y-89915161D02*
X81039538Y-89552769D01*
G75*
G02*
X81039538Y-89243409I154680J154680D01*
G01*
X81348897Y-88934050D01*
G75*
G02*
X81658257Y-88934050I154680J-154680D01*
G01*
X82020650Y-89296443D01*
G75*
G02*
X82020650Y-89605803I-154680J-154680D01*
G01*
X81711291Y-89915162D01*
G75*
G02*
X81401931Y-89915162I-154680J154680D01*
G01*
G37*
G36*
G01*
X80288237Y-91028855D02*
X79925844Y-90666463D01*
G75*
G02*
X79925844Y-90357103I154680J154680D01*
G01*
X80235203Y-90047744D01*
G75*
G02*
X80544563Y-90047744I154680J-154680D01*
G01*
X80906956Y-90410137D01*
G75*
G02*
X80906956Y-90719497I-154680J-154680D01*
G01*
X80597597Y-91028856D01*
G75*
G02*
X80288237Y-91028856I-154680J154680D01*
G01*
G37*
%TD*%
%TO.C,R85*%
G36*
G01*
X75173550Y-89667600D02*
X74661050Y-89667600D01*
G75*
G02*
X74442300Y-89448850I0J218750D01*
G01*
X74442300Y-89011350D01*
G75*
G02*
X74661050Y-88792600I218750J0D01*
G01*
X75173550Y-88792600D01*
G75*
G02*
X75392300Y-89011350I0J-218750D01*
G01*
X75392300Y-89448850D01*
G75*
G02*
X75173550Y-89667600I-218750J0D01*
G01*
G37*
G36*
G01*
X75173550Y-91242600D02*
X74661050Y-91242600D01*
G75*
G02*
X74442300Y-91023850I0J218750D01*
G01*
X74442300Y-90586350D01*
G75*
G02*
X74661050Y-90367600I218750J0D01*
G01*
X75173550Y-90367600D01*
G75*
G02*
X75392300Y-90586350I0J-218750D01*
G01*
X75392300Y-91023850D01*
G75*
G02*
X75173550Y-91242600I-218750J0D01*
G01*
G37*
%TD*%
%TO.C,R84*%
G36*
G01*
X70757300Y-90294750D02*
X70757300Y-90807250D01*
G75*
G02*
X70538550Y-91026000I-218750J0D01*
G01*
X70101050Y-91026000D01*
G75*
G02*
X69882300Y-90807250I0J218750D01*
G01*
X69882300Y-90294750D01*
G75*
G02*
X70101050Y-90076000I218750J0D01*
G01*
X70538550Y-90076000D01*
G75*
G02*
X70757300Y-90294750I0J-218750D01*
G01*
G37*
G36*
G01*
X72332300Y-90294750D02*
X72332300Y-90807250D01*
G75*
G02*
X72113550Y-91026000I-218750J0D01*
G01*
X71676050Y-91026000D01*
G75*
G02*
X71457300Y-90807250I0J218750D01*
G01*
X71457300Y-90294750D01*
G75*
G02*
X71676050Y-90076000I218750J0D01*
G01*
X72113550Y-90076000D01*
G75*
G02*
X72332300Y-90294750I0J-218750D01*
G01*
G37*
%TD*%
%TO.C,R83*%
G36*
G01*
X63886600Y-90967850D02*
X63886600Y-91480350D01*
G75*
G02*
X63667850Y-91699100I-218750J0D01*
G01*
X63230350Y-91699100D01*
G75*
G02*
X63011600Y-91480350I0J218750D01*
G01*
X63011600Y-90967850D01*
G75*
G02*
X63230350Y-90749100I218750J0D01*
G01*
X63667850Y-90749100D01*
G75*
G02*
X63886600Y-90967850I0J-218750D01*
G01*
G37*
G36*
G01*
X65461600Y-90967850D02*
X65461600Y-91480350D01*
G75*
G02*
X65242850Y-91699100I-218750J0D01*
G01*
X64805350Y-91699100D01*
G75*
G02*
X64586600Y-91480350I0J218750D01*
G01*
X64586600Y-90967850D01*
G75*
G02*
X64805350Y-90749100I218750J0D01*
G01*
X65242850Y-90749100D01*
G75*
G02*
X65461600Y-90967850I0J-218750D01*
G01*
G37*
%TD*%
%TO.C,R82*%
G36*
G01*
X60489261Y-89692469D02*
X60126869Y-90054862D01*
G75*
G02*
X59817509Y-90054862I-154680J154680D01*
G01*
X59508150Y-89745503D01*
G75*
G02*
X59508150Y-89436143I154680J154680D01*
G01*
X59870543Y-89073750D01*
G75*
G02*
X60179903Y-89073750I154680J-154680D01*
G01*
X60489262Y-89383109D01*
G75*
G02*
X60489262Y-89692469I-154680J-154680D01*
G01*
G37*
G36*
G01*
X61602955Y-90806163D02*
X61240563Y-91168556D01*
G75*
G02*
X60931203Y-91168556I-154680J154680D01*
G01*
X60621844Y-90859197D01*
G75*
G02*
X60621844Y-90549837I154680J154680D01*
G01*
X60984237Y-90187444D01*
G75*
G02*
X61293597Y-90187444I154680J-154680D01*
G01*
X61602956Y-90496803D01*
G75*
G02*
X61602956Y-90806163I-154680J-154680D01*
G01*
G37*
%TD*%
%TO.C,R77*%
G36*
G01*
X87703084Y-83639408D02*
X87340691Y-83277016D01*
G75*
G02*
X87340691Y-82967656I154680J154680D01*
G01*
X87650050Y-82658297D01*
G75*
G02*
X87959410Y-82658297I154680J-154680D01*
G01*
X88321803Y-83020690D01*
G75*
G02*
X88321803Y-83330050I-154680J-154680D01*
G01*
X88012444Y-83639409D01*
G75*
G02*
X87703084Y-83639409I-154680J154680D01*
G01*
G37*
G36*
G01*
X86589390Y-84753102D02*
X86226997Y-84390710D01*
G75*
G02*
X86226997Y-84081350I154680J154680D01*
G01*
X86536356Y-83771991D01*
G75*
G02*
X86845716Y-83771991I154680J-154680D01*
G01*
X87208109Y-84134384D01*
G75*
G02*
X87208109Y-84443744I-154680J-154680D01*
G01*
X86898750Y-84753103D01*
G75*
G02*
X86589390Y-84753103I-154680J154680D01*
G01*
G37*
%TD*%
%TO.C,R75*%
G36*
G01*
X114264150Y-87965700D02*
X113751650Y-87965700D01*
G75*
G02*
X113532900Y-87746950I0J218750D01*
G01*
X113532900Y-87309450D01*
G75*
G02*
X113751650Y-87090700I218750J0D01*
G01*
X114264150Y-87090700D01*
G75*
G02*
X114482900Y-87309450I0J-218750D01*
G01*
X114482900Y-87746950D01*
G75*
G02*
X114264150Y-87965700I-218750J0D01*
G01*
G37*
G36*
G01*
X114264150Y-89540700D02*
X113751650Y-89540700D01*
G75*
G02*
X113532900Y-89321950I0J218750D01*
G01*
X113532900Y-88884450D01*
G75*
G02*
X113751650Y-88665700I218750J0D01*
G01*
X114264150Y-88665700D01*
G75*
G02*
X114482900Y-88884450I0J-218750D01*
G01*
X114482900Y-89321950D01*
G75*
G02*
X114264150Y-89540700I-218750J0D01*
G01*
G37*
%TD*%
%TO.C,R74*%
G36*
G01*
X118145850Y-91282000D02*
X118658350Y-91282000D01*
G75*
G02*
X118877100Y-91500750I0J-218750D01*
G01*
X118877100Y-91938250D01*
G75*
G02*
X118658350Y-92157000I-218750J0D01*
G01*
X118145850Y-92157000D01*
G75*
G02*
X117927100Y-91938250I0J218750D01*
G01*
X117927100Y-91500750D01*
G75*
G02*
X118145850Y-91282000I218750J0D01*
G01*
G37*
G36*
G01*
X118145850Y-89707000D02*
X118658350Y-89707000D01*
G75*
G02*
X118877100Y-89925750I0J-218750D01*
G01*
X118877100Y-90363250D01*
G75*
G02*
X118658350Y-90582000I-218750J0D01*
G01*
X118145850Y-90582000D01*
G75*
G02*
X117927100Y-90363250I0J218750D01*
G01*
X117927100Y-89925750D01*
G75*
G02*
X118145850Y-89707000I218750J0D01*
G01*
G37*
%TD*%
%TO.C,R73*%
G36*
G01*
X141788400Y-87272150D02*
X141788400Y-87784650D01*
G75*
G02*
X141569650Y-88003400I-218750J0D01*
G01*
X141132150Y-88003400D01*
G75*
G02*
X140913400Y-87784650I0J218750D01*
G01*
X140913400Y-87272150D01*
G75*
G02*
X141132150Y-87053400I218750J0D01*
G01*
X141569650Y-87053400D01*
G75*
G02*
X141788400Y-87272150I0J-218750D01*
G01*
G37*
G36*
G01*
X143363400Y-87272150D02*
X143363400Y-87784650D01*
G75*
G02*
X143144650Y-88003400I-218750J0D01*
G01*
X142707150Y-88003400D01*
G75*
G02*
X142488400Y-87784650I0J218750D01*
G01*
X142488400Y-87272150D01*
G75*
G02*
X142707150Y-87053400I218750J0D01*
G01*
X143144650Y-87053400D01*
G75*
G02*
X143363400Y-87272150I0J-218750D01*
G01*
G37*
%TD*%
%TO.C,R72*%
G36*
G01*
X148312850Y-87178400D02*
X147800350Y-87178400D01*
G75*
G02*
X147581600Y-86959650I0J218750D01*
G01*
X147581600Y-86522150D01*
G75*
G02*
X147800350Y-86303400I218750J0D01*
G01*
X148312850Y-86303400D01*
G75*
G02*
X148531600Y-86522150I0J-218750D01*
G01*
X148531600Y-86959650D01*
G75*
G02*
X148312850Y-87178400I-218750J0D01*
G01*
G37*
G36*
G01*
X148312850Y-88753400D02*
X147800350Y-88753400D01*
G75*
G02*
X147581600Y-88534650I0J218750D01*
G01*
X147581600Y-88097150D01*
G75*
G02*
X147800350Y-87878400I218750J0D01*
G01*
X148312850Y-87878400D01*
G75*
G02*
X148531600Y-88097150I0J-218750D01*
G01*
X148531600Y-88534650D01*
G75*
G02*
X148312850Y-88753400I-218750J0D01*
G01*
G37*
%TD*%
D10*
%TO.C,N0*%
X68214620Y-40999999D03*
X65956300Y-44079971D03*
X65178550Y-47819130D03*
X66021430Y-51544160D03*
X83090610Y-48993157D03*
X68333170Y-54584250D03*
X71697470Y-56391900D03*
X75508484Y-56641740D03*
X79079950Y-55288635D03*
X81768730Y-52576296D03*
X82807578Y-45184462D03*
X80316180Y-41158420D03*
X77910400Y-39550950D03*
X74178200Y-38740600D03*
D11*
X74178200Y-47740600D03*
%TD*%
D10*
%TO.C,J2*%
X110490000Y-98386900D03*
X107950000Y-98386900D03*
X105410000Y-98386900D03*
X102870000Y-98386900D03*
X100330000Y-98386900D03*
X97790000Y-98386900D03*
X95250000Y-98386900D03*
X92710000Y-98386900D03*
X90170000Y-98386900D03*
X87630000Y-98386900D03*
X85090000Y-98386900D03*
X82550000Y-98386900D03*
X80010000Y-98386900D03*
X77470000Y-98386900D03*
X74930000Y-98386900D03*
X72390000Y-98386900D03*
X69850000Y-98386900D03*
X67310000Y-98386900D03*
X64770000Y-98386900D03*
X62230000Y-98386900D03*
X110490000Y-95846900D03*
X107950000Y-95846900D03*
X105410000Y-95846900D03*
X102870000Y-95846900D03*
X100330000Y-95846900D03*
X97790000Y-95846900D03*
X95250000Y-95846900D03*
X92710000Y-95846900D03*
X90170000Y-95846900D03*
X87630000Y-95846900D03*
X85090000Y-95846900D03*
X82550000Y-95846900D03*
X80010000Y-95846900D03*
X77470000Y-95846900D03*
X74930000Y-95846900D03*
X72390000Y-95846900D03*
X69850000Y-95846900D03*
X67310000Y-95846900D03*
X64770000Y-95846900D03*
G36*
G01*
X61630000Y-94996900D02*
X62830000Y-94996900D01*
G75*
G02*
X63080000Y-95246900I0J-250000D01*
G01*
X63080000Y-96446900D01*
G75*
G02*
X62830000Y-96696900I-250000J0D01*
G01*
X61630000Y-96696900D01*
G75*
G02*
X61380000Y-96446900I0J250000D01*
G01*
X61380000Y-95246900D01*
G75*
G02*
X61630000Y-94996900I250000J0D01*
G01*
G37*
%TD*%
%TO.C,N5*%
X228214620Y-40999999D03*
X225956300Y-44079971D03*
X225178550Y-47819130D03*
X226021430Y-51544160D03*
X243090610Y-48993157D03*
X228333170Y-54584250D03*
X231697470Y-56391900D03*
X235508484Y-56641740D03*
X239079950Y-55288635D03*
X241768730Y-52576296D03*
X242807578Y-45184462D03*
X240316180Y-41158420D03*
X237910400Y-39550950D03*
X234178200Y-38740600D03*
D11*
X234178200Y-47740600D03*
%TD*%
D12*
%TO.C,M4*%
X184899300Y-103505000D03*
%TD*%
%TO.C,M3*%
X250367800Y-36677600D03*
%TD*%
%TO.C,M2*%
X57962800Y-36537900D03*
%TD*%
%TO.C,M1*%
X123164600Y-103416100D03*
%TD*%
%TO.C,R63*%
G36*
G01*
X237690950Y-76842200D02*
X238203450Y-76842200D01*
G75*
G02*
X238422200Y-77060950I0J-218750D01*
G01*
X238422200Y-77498450D01*
G75*
G02*
X238203450Y-77717200I-218750J0D01*
G01*
X237690950Y-77717200D01*
G75*
G02*
X237472200Y-77498450I0J218750D01*
G01*
X237472200Y-77060950D01*
G75*
G02*
X237690950Y-76842200I218750J0D01*
G01*
G37*
G36*
G01*
X237690950Y-75267200D02*
X238203450Y-75267200D01*
G75*
G02*
X238422200Y-75485950I0J-218750D01*
G01*
X238422200Y-75923450D01*
G75*
G02*
X238203450Y-76142200I-218750J0D01*
G01*
X237690950Y-76142200D01*
G75*
G02*
X237472200Y-75923450I0J218750D01*
G01*
X237472200Y-75485950D01*
G75*
G02*
X237690950Y-75267200I218750J0D01*
G01*
G37*
%TD*%
%TO.C,R62*%
G36*
G01*
X239316550Y-76842100D02*
X239829050Y-76842100D01*
G75*
G02*
X240047800Y-77060850I0J-218750D01*
G01*
X240047800Y-77498350D01*
G75*
G02*
X239829050Y-77717100I-218750J0D01*
G01*
X239316550Y-77717100D01*
G75*
G02*
X239097800Y-77498350I0J218750D01*
G01*
X239097800Y-77060850D01*
G75*
G02*
X239316550Y-76842100I218750J0D01*
G01*
G37*
G36*
G01*
X239316550Y-75267100D02*
X239829050Y-75267100D01*
G75*
G02*
X240047800Y-75485850I0J-218750D01*
G01*
X240047800Y-75923350D01*
G75*
G02*
X239829050Y-76142100I-218750J0D01*
G01*
X239316550Y-76142100D01*
G75*
G02*
X239097800Y-75923350I0J218750D01*
G01*
X239097800Y-75485850D01*
G75*
G02*
X239316550Y-75267100I218750J0D01*
G01*
G37*
%TD*%
%TO.C,R61*%
G36*
G01*
X240942150Y-76854800D02*
X241454650Y-76854800D01*
G75*
G02*
X241673400Y-77073550I0J-218750D01*
G01*
X241673400Y-77511050D01*
G75*
G02*
X241454650Y-77729800I-218750J0D01*
G01*
X240942150Y-77729800D01*
G75*
G02*
X240723400Y-77511050I0J218750D01*
G01*
X240723400Y-77073550D01*
G75*
G02*
X240942150Y-76854800I218750J0D01*
G01*
G37*
G36*
G01*
X240942150Y-75279800D02*
X241454650Y-75279800D01*
G75*
G02*
X241673400Y-75498550I0J-218750D01*
G01*
X241673400Y-75936050D01*
G75*
G02*
X241454650Y-76154800I-218750J0D01*
G01*
X240942150Y-76154800D01*
G75*
G02*
X240723400Y-75936050I0J218750D01*
G01*
X240723400Y-75498550D01*
G75*
G02*
X240942150Y-75279800I218750J0D01*
G01*
G37*
%TD*%
%TO.C,R60*%
G36*
G01*
X236065350Y-76842000D02*
X236577850Y-76842000D01*
G75*
G02*
X236796600Y-77060750I0J-218750D01*
G01*
X236796600Y-77498250D01*
G75*
G02*
X236577850Y-77717000I-218750J0D01*
G01*
X236065350Y-77717000D01*
G75*
G02*
X235846600Y-77498250I0J218750D01*
G01*
X235846600Y-77060750D01*
G75*
G02*
X236065350Y-76842000I218750J0D01*
G01*
G37*
G36*
G01*
X236065350Y-75267000D02*
X236577850Y-75267000D01*
G75*
G02*
X236796600Y-75485750I0J-218750D01*
G01*
X236796600Y-75923250D01*
G75*
G02*
X236577850Y-76142000I-218750J0D01*
G01*
X236065350Y-76142000D01*
G75*
G02*
X235846600Y-75923250I0J218750D01*
G01*
X235846600Y-75485750D01*
G75*
G02*
X236065350Y-75267000I218750J0D01*
G01*
G37*
%TD*%
%TO.C,R59*%
G36*
G01*
X234465150Y-76842100D02*
X234977650Y-76842100D01*
G75*
G02*
X235196400Y-77060850I0J-218750D01*
G01*
X235196400Y-77498350D01*
G75*
G02*
X234977650Y-77717100I-218750J0D01*
G01*
X234465150Y-77717100D01*
G75*
G02*
X234246400Y-77498350I0J218750D01*
G01*
X234246400Y-77060850D01*
G75*
G02*
X234465150Y-76842100I218750J0D01*
G01*
G37*
G36*
G01*
X234465150Y-75267100D02*
X234977650Y-75267100D01*
G75*
G02*
X235196400Y-75485850I0J-218750D01*
G01*
X235196400Y-75923350D01*
G75*
G02*
X234977650Y-76142100I-218750J0D01*
G01*
X234465150Y-76142100D01*
G75*
G02*
X234246400Y-75923350I0J218750D01*
G01*
X234246400Y-75485850D01*
G75*
G02*
X234465150Y-75267100I218750J0D01*
G01*
G37*
%TD*%
%TO.C,R58*%
G36*
G01*
X232814150Y-76842100D02*
X233326650Y-76842100D01*
G75*
G02*
X233545400Y-77060850I0J-218750D01*
G01*
X233545400Y-77498350D01*
G75*
G02*
X233326650Y-77717100I-218750J0D01*
G01*
X232814150Y-77717100D01*
G75*
G02*
X232595400Y-77498350I0J218750D01*
G01*
X232595400Y-77060850D01*
G75*
G02*
X232814150Y-76842100I218750J0D01*
G01*
G37*
G36*
G01*
X232814150Y-75267100D02*
X233326650Y-75267100D01*
G75*
G02*
X233545400Y-75485850I0J-218750D01*
G01*
X233545400Y-75923350D01*
G75*
G02*
X233326650Y-76142100I-218750J0D01*
G01*
X232814150Y-76142100D01*
G75*
G02*
X232595400Y-75923350I0J218750D01*
G01*
X232595400Y-75485850D01*
G75*
G02*
X232814150Y-75267100I218750J0D01*
G01*
G37*
%TD*%
%TO.C,R57*%
G36*
G01*
X231188550Y-76842100D02*
X231701050Y-76842100D01*
G75*
G02*
X231919800Y-77060850I0J-218750D01*
G01*
X231919800Y-77498350D01*
G75*
G02*
X231701050Y-77717100I-218750J0D01*
G01*
X231188550Y-77717100D01*
G75*
G02*
X230969800Y-77498350I0J218750D01*
G01*
X230969800Y-77060850D01*
G75*
G02*
X231188550Y-76842100I218750J0D01*
G01*
G37*
G36*
G01*
X231188550Y-75267100D02*
X231701050Y-75267100D01*
G75*
G02*
X231919800Y-75485850I0J-218750D01*
G01*
X231919800Y-75923350D01*
G75*
G02*
X231701050Y-76142100I-218750J0D01*
G01*
X231188550Y-76142100D01*
G75*
G02*
X230969800Y-75923350I0J218750D01*
G01*
X230969800Y-75485850D01*
G75*
G02*
X231188550Y-75267100I218750J0D01*
G01*
G37*
%TD*%
%TO.C,R56*%
G36*
G01*
X229562950Y-76816700D02*
X230075450Y-76816700D01*
G75*
G02*
X230294200Y-77035450I0J-218750D01*
G01*
X230294200Y-77472950D01*
G75*
G02*
X230075450Y-77691700I-218750J0D01*
G01*
X229562950Y-77691700D01*
G75*
G02*
X229344200Y-77472950I0J218750D01*
G01*
X229344200Y-77035450D01*
G75*
G02*
X229562950Y-76816700I218750J0D01*
G01*
G37*
G36*
G01*
X229562950Y-75241700D02*
X230075450Y-75241700D01*
G75*
G02*
X230294200Y-75460450I0J-218750D01*
G01*
X230294200Y-75897950D01*
G75*
G02*
X230075450Y-76116700I-218750J0D01*
G01*
X229562950Y-76116700D01*
G75*
G02*
X229344200Y-75897950I0J218750D01*
G01*
X229344200Y-75460450D01*
G75*
G02*
X229562950Y-75241700I218750J0D01*
G01*
G37*
%TD*%
%TO.C,R55*%
G36*
G01*
X227962750Y-76791300D02*
X228475250Y-76791300D01*
G75*
G02*
X228694000Y-77010050I0J-218750D01*
G01*
X228694000Y-77447550D01*
G75*
G02*
X228475250Y-77666300I-218750J0D01*
G01*
X227962750Y-77666300D01*
G75*
G02*
X227744000Y-77447550I0J218750D01*
G01*
X227744000Y-77010050D01*
G75*
G02*
X227962750Y-76791300I218750J0D01*
G01*
G37*
G36*
G01*
X227962750Y-75216300D02*
X228475250Y-75216300D01*
G75*
G02*
X228694000Y-75435050I0J-218750D01*
G01*
X228694000Y-75872550D01*
G75*
G02*
X228475250Y-76091300I-218750J0D01*
G01*
X227962750Y-76091300D01*
G75*
G02*
X227744000Y-75872550I0J218750D01*
G01*
X227744000Y-75435050D01*
G75*
G02*
X227962750Y-75216300I218750J0D01*
G01*
G37*
%TD*%
%TO.C,R54*%
G36*
G01*
X226311750Y-76765800D02*
X226824250Y-76765800D01*
G75*
G02*
X227043000Y-76984550I0J-218750D01*
G01*
X227043000Y-77422050D01*
G75*
G02*
X226824250Y-77640800I-218750J0D01*
G01*
X226311750Y-77640800D01*
G75*
G02*
X226093000Y-77422050I0J218750D01*
G01*
X226093000Y-76984550D01*
G75*
G02*
X226311750Y-76765800I218750J0D01*
G01*
G37*
G36*
G01*
X226311750Y-75190800D02*
X226824250Y-75190800D01*
G75*
G02*
X227043000Y-75409550I0J-218750D01*
G01*
X227043000Y-75847050D01*
G75*
G02*
X226824250Y-76065800I-218750J0D01*
G01*
X226311750Y-76065800D01*
G75*
G02*
X226093000Y-75847050I0J218750D01*
G01*
X226093000Y-75409550D01*
G75*
G02*
X226311750Y-75190800I218750J0D01*
G01*
G37*
%TD*%
%TO.C,R53*%
G36*
G01*
X208331090Y-76638900D02*
X208843590Y-76638900D01*
G75*
G02*
X209062340Y-76857650I0J-218750D01*
G01*
X209062340Y-77295150D01*
G75*
G02*
X208843590Y-77513900I-218750J0D01*
G01*
X208331090Y-77513900D01*
G75*
G02*
X208112340Y-77295150I0J218750D01*
G01*
X208112340Y-76857650D01*
G75*
G02*
X208331090Y-76638900I218750J0D01*
G01*
G37*
G36*
G01*
X208331090Y-75063900D02*
X208843590Y-75063900D01*
G75*
G02*
X209062340Y-75282650I0J-218750D01*
G01*
X209062340Y-75720150D01*
G75*
G02*
X208843590Y-75938900I-218750J0D01*
G01*
X208331090Y-75938900D01*
G75*
G02*
X208112340Y-75720150I0J218750D01*
G01*
X208112340Y-75282650D01*
G75*
G02*
X208331090Y-75063900I218750J0D01*
G01*
G37*
%TD*%
%TO.C,R52*%
G36*
G01*
X209979550Y-76638900D02*
X210492050Y-76638900D01*
G75*
G02*
X210710800Y-76857650I0J-218750D01*
G01*
X210710800Y-77295150D01*
G75*
G02*
X210492050Y-77513900I-218750J0D01*
G01*
X209979550Y-77513900D01*
G75*
G02*
X209760800Y-77295150I0J218750D01*
G01*
X209760800Y-76857650D01*
G75*
G02*
X209979550Y-76638900I218750J0D01*
G01*
G37*
G36*
G01*
X209979550Y-75063900D02*
X210492050Y-75063900D01*
G75*
G02*
X210710800Y-75282650I0J-218750D01*
G01*
X210710800Y-75720150D01*
G75*
G02*
X210492050Y-75938900I-218750J0D01*
G01*
X209979550Y-75938900D01*
G75*
G02*
X209760800Y-75720150I0J218750D01*
G01*
X209760800Y-75282650D01*
G75*
G02*
X209979550Y-75063900I218750J0D01*
G01*
G37*
%TD*%
%TO.C,R51*%
G36*
G01*
X211655950Y-76638900D02*
X212168450Y-76638900D01*
G75*
G02*
X212387200Y-76857650I0J-218750D01*
G01*
X212387200Y-77295150D01*
G75*
G02*
X212168450Y-77513900I-218750J0D01*
G01*
X211655950Y-77513900D01*
G75*
G02*
X211437200Y-77295150I0J218750D01*
G01*
X211437200Y-76857650D01*
G75*
G02*
X211655950Y-76638900I218750J0D01*
G01*
G37*
G36*
G01*
X211655950Y-75063900D02*
X212168450Y-75063900D01*
G75*
G02*
X212387200Y-75282650I0J-218750D01*
G01*
X212387200Y-75720150D01*
G75*
G02*
X212168450Y-75938900I-218750J0D01*
G01*
X211655950Y-75938900D01*
G75*
G02*
X211437200Y-75720150I0J218750D01*
G01*
X211437200Y-75282650D01*
G75*
G02*
X211655950Y-75063900I218750J0D01*
G01*
G37*
%TD*%
%TO.C,R50*%
G36*
G01*
X206687710Y-76633820D02*
X207200210Y-76633820D01*
G75*
G02*
X207418960Y-76852570I0J-218750D01*
G01*
X207418960Y-77290070D01*
G75*
G02*
X207200210Y-77508820I-218750J0D01*
G01*
X206687710Y-77508820D01*
G75*
G02*
X206468960Y-77290070I0J218750D01*
G01*
X206468960Y-76852570D01*
G75*
G02*
X206687710Y-76633820I218750J0D01*
G01*
G37*
G36*
G01*
X206687710Y-75058820D02*
X207200210Y-75058820D01*
G75*
G02*
X207418960Y-75277570I0J-218750D01*
G01*
X207418960Y-75715070D01*
G75*
G02*
X207200210Y-75933820I-218750J0D01*
G01*
X206687710Y-75933820D01*
G75*
G02*
X206468960Y-75715070I0J218750D01*
G01*
X206468960Y-75277570D01*
G75*
G02*
X206687710Y-75058820I218750J0D01*
G01*
G37*
%TD*%
%TO.C,R49*%
G36*
G01*
X205072270Y-76633820D02*
X205584770Y-76633820D01*
G75*
G02*
X205803520Y-76852570I0J-218750D01*
G01*
X205803520Y-77290070D01*
G75*
G02*
X205584770Y-77508820I-218750J0D01*
G01*
X205072270Y-77508820D01*
G75*
G02*
X204853520Y-77290070I0J218750D01*
G01*
X204853520Y-76852570D01*
G75*
G02*
X205072270Y-76633820I218750J0D01*
G01*
G37*
G36*
G01*
X205072270Y-75058820D02*
X205584770Y-75058820D01*
G75*
G02*
X205803520Y-75277570I0J-218750D01*
G01*
X205803520Y-75715070D01*
G75*
G02*
X205584770Y-75933820I-218750J0D01*
G01*
X205072270Y-75933820D01*
G75*
G02*
X204853520Y-75715070I0J218750D01*
G01*
X204853520Y-75277570D01*
G75*
G02*
X205072270Y-75058820I218750J0D01*
G01*
G37*
%TD*%
%TO.C,R48*%
G36*
G01*
X203444130Y-76626200D02*
X203956630Y-76626200D01*
G75*
G02*
X204175380Y-76844950I0J-218750D01*
G01*
X204175380Y-77282450D01*
G75*
G02*
X203956630Y-77501200I-218750J0D01*
G01*
X203444130Y-77501200D01*
G75*
G02*
X203225380Y-77282450I0J218750D01*
G01*
X203225380Y-76844950D01*
G75*
G02*
X203444130Y-76626200I218750J0D01*
G01*
G37*
G36*
G01*
X203444130Y-75051200D02*
X203956630Y-75051200D01*
G75*
G02*
X204175380Y-75269950I0J-218750D01*
G01*
X204175380Y-75707450D01*
G75*
G02*
X203956630Y-75926200I-218750J0D01*
G01*
X203444130Y-75926200D01*
G75*
G02*
X203225380Y-75707450I0J218750D01*
G01*
X203225380Y-75269950D01*
G75*
G02*
X203444130Y-75051200I218750J0D01*
G01*
G37*
%TD*%
%TO.C,R47*%
G36*
G01*
X201821070Y-76618480D02*
X202333570Y-76618480D01*
G75*
G02*
X202552320Y-76837230I0J-218750D01*
G01*
X202552320Y-77274730D01*
G75*
G02*
X202333570Y-77493480I-218750J0D01*
G01*
X201821070Y-77493480D01*
G75*
G02*
X201602320Y-77274730I0J218750D01*
G01*
X201602320Y-76837230D01*
G75*
G02*
X201821070Y-76618480I218750J0D01*
G01*
G37*
G36*
G01*
X201821070Y-75043480D02*
X202333570Y-75043480D01*
G75*
G02*
X202552320Y-75262230I0J-218750D01*
G01*
X202552320Y-75699730D01*
G75*
G02*
X202333570Y-75918480I-218750J0D01*
G01*
X201821070Y-75918480D01*
G75*
G02*
X201602320Y-75699730I0J218750D01*
G01*
X201602320Y-75262230D01*
G75*
G02*
X201821070Y-75043480I218750J0D01*
G01*
G37*
%TD*%
%TO.C,R46*%
G36*
G01*
X200144670Y-76605880D02*
X200657170Y-76605880D01*
G75*
G02*
X200875920Y-76824630I0J-218750D01*
G01*
X200875920Y-77262130D01*
G75*
G02*
X200657170Y-77480880I-218750J0D01*
G01*
X200144670Y-77480880D01*
G75*
G02*
X199925920Y-77262130I0J218750D01*
G01*
X199925920Y-76824630D01*
G75*
G02*
X200144670Y-76605880I218750J0D01*
G01*
G37*
G36*
G01*
X200144670Y-75030880D02*
X200657170Y-75030880D01*
G75*
G02*
X200875920Y-75249630I0J-218750D01*
G01*
X200875920Y-75687130D01*
G75*
G02*
X200657170Y-75905880I-218750J0D01*
G01*
X200144670Y-75905880D01*
G75*
G02*
X199925920Y-75687130I0J218750D01*
G01*
X199925920Y-75249630D01*
G75*
G02*
X200144670Y-75030880I218750J0D01*
G01*
G37*
%TD*%
%TO.C,R45*%
G36*
G01*
X198468270Y-76575400D02*
X198980770Y-76575400D01*
G75*
G02*
X199199520Y-76794150I0J-218750D01*
G01*
X199199520Y-77231650D01*
G75*
G02*
X198980770Y-77450400I-218750J0D01*
G01*
X198468270Y-77450400D01*
G75*
G02*
X198249520Y-77231650I0J218750D01*
G01*
X198249520Y-76794150D01*
G75*
G02*
X198468270Y-76575400I218750J0D01*
G01*
G37*
G36*
G01*
X198468270Y-75000400D02*
X198980770Y-75000400D01*
G75*
G02*
X199199520Y-75219150I0J-218750D01*
G01*
X199199520Y-75656650D01*
G75*
G02*
X198980770Y-75875400I-218750J0D01*
G01*
X198468270Y-75875400D01*
G75*
G02*
X198249520Y-75656650I0J218750D01*
G01*
X198249520Y-75219150D01*
G75*
G02*
X198468270Y-75000400I218750J0D01*
G01*
G37*
%TD*%
%TO.C,R44*%
G36*
G01*
X196697890Y-76575400D02*
X197210390Y-76575400D01*
G75*
G02*
X197429140Y-76794150I0J-218750D01*
G01*
X197429140Y-77231650D01*
G75*
G02*
X197210390Y-77450400I-218750J0D01*
G01*
X196697890Y-77450400D01*
G75*
G02*
X196479140Y-77231650I0J218750D01*
G01*
X196479140Y-76794150D01*
G75*
G02*
X196697890Y-76575400I218750J0D01*
G01*
G37*
G36*
G01*
X196697890Y-75000400D02*
X197210390Y-75000400D01*
G75*
G02*
X197429140Y-75219150I0J-218750D01*
G01*
X197429140Y-75656650D01*
G75*
G02*
X197210390Y-75875400I-218750J0D01*
G01*
X196697890Y-75875400D01*
G75*
G02*
X196479140Y-75656650I0J218750D01*
G01*
X196479140Y-75219150D01*
G75*
G02*
X196697890Y-75000400I218750J0D01*
G01*
G37*
%TD*%
%TO.C,R42*%
G36*
G01*
X175968950Y-75686400D02*
X176481450Y-75686400D01*
G75*
G02*
X176700200Y-75905150I0J-218750D01*
G01*
X176700200Y-76342650D01*
G75*
G02*
X176481450Y-76561400I-218750J0D01*
G01*
X175968950Y-76561400D01*
G75*
G02*
X175750200Y-76342650I0J218750D01*
G01*
X175750200Y-75905150D01*
G75*
G02*
X175968950Y-75686400I218750J0D01*
G01*
G37*
G36*
G01*
X175968950Y-74111400D02*
X176481450Y-74111400D01*
G75*
G02*
X176700200Y-74330150I0J-218750D01*
G01*
X176700200Y-74767650D01*
G75*
G02*
X176481450Y-74986400I-218750J0D01*
G01*
X175968950Y-74986400D01*
G75*
G02*
X175750200Y-74767650I0J218750D01*
G01*
X175750200Y-74330150D01*
G75*
G02*
X175968950Y-74111400I218750J0D01*
G01*
G37*
%TD*%
%TO.C,R41*%
G36*
G01*
X177658050Y-75686400D02*
X178170550Y-75686400D01*
G75*
G02*
X178389300Y-75905150I0J-218750D01*
G01*
X178389300Y-76342650D01*
G75*
G02*
X178170550Y-76561400I-218750J0D01*
G01*
X177658050Y-76561400D01*
G75*
G02*
X177439300Y-76342650I0J218750D01*
G01*
X177439300Y-75905150D01*
G75*
G02*
X177658050Y-75686400I218750J0D01*
G01*
G37*
G36*
G01*
X177658050Y-74111400D02*
X178170550Y-74111400D01*
G75*
G02*
X178389300Y-74330150I0J-218750D01*
G01*
X178389300Y-74767650D01*
G75*
G02*
X178170550Y-74986400I-218750J0D01*
G01*
X177658050Y-74986400D01*
G75*
G02*
X177439300Y-74767650I0J218750D01*
G01*
X177439300Y-74330150D01*
G75*
G02*
X177658050Y-74111400I218750J0D01*
G01*
G37*
%TD*%
%TO.C,R40*%
G36*
G01*
X172666950Y-75648300D02*
X173179450Y-75648300D01*
G75*
G02*
X173398200Y-75867050I0J-218750D01*
G01*
X173398200Y-76304550D01*
G75*
G02*
X173179450Y-76523300I-218750J0D01*
G01*
X172666950Y-76523300D01*
G75*
G02*
X172448200Y-76304550I0J218750D01*
G01*
X172448200Y-75867050D01*
G75*
G02*
X172666950Y-75648300I218750J0D01*
G01*
G37*
G36*
G01*
X172666950Y-74073300D02*
X173179450Y-74073300D01*
G75*
G02*
X173398200Y-74292050I0J-218750D01*
G01*
X173398200Y-74729550D01*
G75*
G02*
X173179450Y-74948300I-218750J0D01*
G01*
X172666950Y-74948300D01*
G75*
G02*
X172448200Y-74729550I0J218750D01*
G01*
X172448200Y-74292050D01*
G75*
G02*
X172666950Y-74073300I218750J0D01*
G01*
G37*
%TD*%
%TO.C,R39*%
G36*
G01*
X170990550Y-75622900D02*
X171503050Y-75622900D01*
G75*
G02*
X171721800Y-75841650I0J-218750D01*
G01*
X171721800Y-76279150D01*
G75*
G02*
X171503050Y-76497900I-218750J0D01*
G01*
X170990550Y-76497900D01*
G75*
G02*
X170771800Y-76279150I0J218750D01*
G01*
X170771800Y-75841650D01*
G75*
G02*
X170990550Y-75622900I218750J0D01*
G01*
G37*
G36*
G01*
X170990550Y-74047900D02*
X171503050Y-74047900D01*
G75*
G02*
X171721800Y-74266650I0J-218750D01*
G01*
X171721800Y-74704150D01*
G75*
G02*
X171503050Y-74922900I-218750J0D01*
G01*
X170990550Y-74922900D01*
G75*
G02*
X170771800Y-74704150I0J218750D01*
G01*
X170771800Y-74266650D01*
G75*
G02*
X170990550Y-74047900I218750J0D01*
G01*
G37*
%TD*%
%TO.C,R38*%
G36*
G01*
X169301450Y-75597500D02*
X169813950Y-75597500D01*
G75*
G02*
X170032700Y-75816250I0J-218750D01*
G01*
X170032700Y-76253750D01*
G75*
G02*
X169813950Y-76472500I-218750J0D01*
G01*
X169301450Y-76472500D01*
G75*
G02*
X169082700Y-76253750I0J218750D01*
G01*
X169082700Y-75816250D01*
G75*
G02*
X169301450Y-75597500I218750J0D01*
G01*
G37*
G36*
G01*
X169301450Y-74022500D02*
X169813950Y-74022500D01*
G75*
G02*
X170032700Y-74241250I0J-218750D01*
G01*
X170032700Y-74678750D01*
G75*
G02*
X169813950Y-74897500I-218750J0D01*
G01*
X169301450Y-74897500D01*
G75*
G02*
X169082700Y-74678750I0J218750D01*
G01*
X169082700Y-74241250D01*
G75*
G02*
X169301450Y-74022500I218750J0D01*
G01*
G37*
%TD*%
%TO.C,R37*%
G36*
G01*
X167675850Y-75597500D02*
X168188350Y-75597500D01*
G75*
G02*
X168407100Y-75816250I0J-218750D01*
G01*
X168407100Y-76253750D01*
G75*
G02*
X168188350Y-76472500I-218750J0D01*
G01*
X167675850Y-76472500D01*
G75*
G02*
X167457100Y-76253750I0J218750D01*
G01*
X167457100Y-75816250D01*
G75*
G02*
X167675850Y-75597500I218750J0D01*
G01*
G37*
G36*
G01*
X167675850Y-74022500D02*
X168188350Y-74022500D01*
G75*
G02*
X168407100Y-74241250I0J-218750D01*
G01*
X168407100Y-74678750D01*
G75*
G02*
X168188350Y-74897500I-218750J0D01*
G01*
X167675850Y-74897500D01*
G75*
G02*
X167457100Y-74678750I0J218750D01*
G01*
X167457100Y-74241250D01*
G75*
G02*
X167675850Y-74022500I218750J0D01*
G01*
G37*
%TD*%
%TO.C,R36*%
G36*
G01*
X166024850Y-75572100D02*
X166537350Y-75572100D01*
G75*
G02*
X166756100Y-75790850I0J-218750D01*
G01*
X166756100Y-76228350D01*
G75*
G02*
X166537350Y-76447100I-218750J0D01*
G01*
X166024850Y-76447100D01*
G75*
G02*
X165806100Y-76228350I0J218750D01*
G01*
X165806100Y-75790850D01*
G75*
G02*
X166024850Y-75572100I218750J0D01*
G01*
G37*
G36*
G01*
X166024850Y-73997100D02*
X166537350Y-73997100D01*
G75*
G02*
X166756100Y-74215850I0J-218750D01*
G01*
X166756100Y-74653350D01*
G75*
G02*
X166537350Y-74872100I-218750J0D01*
G01*
X166024850Y-74872100D01*
G75*
G02*
X165806100Y-74653350I0J218750D01*
G01*
X165806100Y-74215850D01*
G75*
G02*
X166024850Y-73997100I218750J0D01*
G01*
G37*
%TD*%
%TO.C,R35*%
G36*
G01*
X164335750Y-75521400D02*
X164848250Y-75521400D01*
G75*
G02*
X165067000Y-75740150I0J-218750D01*
G01*
X165067000Y-76177650D01*
G75*
G02*
X164848250Y-76396400I-218750J0D01*
G01*
X164335750Y-76396400D01*
G75*
G02*
X164117000Y-76177650I0J218750D01*
G01*
X164117000Y-75740150D01*
G75*
G02*
X164335750Y-75521400I218750J0D01*
G01*
G37*
G36*
G01*
X164335750Y-73946400D02*
X164848250Y-73946400D01*
G75*
G02*
X165067000Y-74165150I0J-218750D01*
G01*
X165067000Y-74602650D01*
G75*
G02*
X164848250Y-74821400I-218750J0D01*
G01*
X164335750Y-74821400D01*
G75*
G02*
X164117000Y-74602650I0J218750D01*
G01*
X164117000Y-74165150D01*
G75*
G02*
X164335750Y-73946400I218750J0D01*
G01*
G37*
%TD*%
%TO.C,R34*%
G36*
G01*
X162710150Y-75483200D02*
X163222650Y-75483200D01*
G75*
G02*
X163441400Y-75701950I0J-218750D01*
G01*
X163441400Y-76139450D01*
G75*
G02*
X163222650Y-76358200I-218750J0D01*
G01*
X162710150Y-76358200D01*
G75*
G02*
X162491400Y-76139450I0J218750D01*
G01*
X162491400Y-75701950D01*
G75*
G02*
X162710150Y-75483200I218750J0D01*
G01*
G37*
G36*
G01*
X162710150Y-73908200D02*
X163222650Y-73908200D01*
G75*
G02*
X163441400Y-74126950I0J-218750D01*
G01*
X163441400Y-74564450D01*
G75*
G02*
X163222650Y-74783200I-218750J0D01*
G01*
X162710150Y-74783200D01*
G75*
G02*
X162491400Y-74564450I0J218750D01*
G01*
X162491400Y-74126950D01*
G75*
G02*
X162710150Y-73908200I218750J0D01*
G01*
G37*
%TD*%
%TO.C,R31*%
G36*
G01*
X142847350Y-75826100D02*
X143359850Y-75826100D01*
G75*
G02*
X143578600Y-76044850I0J-218750D01*
G01*
X143578600Y-76482350D01*
G75*
G02*
X143359850Y-76701100I-218750J0D01*
G01*
X142847350Y-76701100D01*
G75*
G02*
X142628600Y-76482350I0J218750D01*
G01*
X142628600Y-76044850D01*
G75*
G02*
X142847350Y-75826100I218750J0D01*
G01*
G37*
G36*
G01*
X142847350Y-74251100D02*
X143359850Y-74251100D01*
G75*
G02*
X143578600Y-74469850I0J-218750D01*
G01*
X143578600Y-74907350D01*
G75*
G02*
X143359850Y-75126100I-218750J0D01*
G01*
X142847350Y-75126100D01*
G75*
G02*
X142628600Y-74907350I0J218750D01*
G01*
X142628600Y-74469850D01*
G75*
G02*
X142847350Y-74251100I218750J0D01*
G01*
G37*
%TD*%
%TO.C,R30*%
G36*
G01*
X144536450Y-75838800D02*
X145048950Y-75838800D01*
G75*
G02*
X145267700Y-76057550I0J-218750D01*
G01*
X145267700Y-76495050D01*
G75*
G02*
X145048950Y-76713800I-218750J0D01*
G01*
X144536450Y-76713800D01*
G75*
G02*
X144317700Y-76495050I0J218750D01*
G01*
X144317700Y-76057550D01*
G75*
G02*
X144536450Y-75838800I218750J0D01*
G01*
G37*
G36*
G01*
X144536450Y-74263800D02*
X145048950Y-74263800D01*
G75*
G02*
X145267700Y-74482550I0J-218750D01*
G01*
X145267700Y-74920050D01*
G75*
G02*
X145048950Y-75138800I-218750J0D01*
G01*
X144536450Y-75138800D01*
G75*
G02*
X144317700Y-74920050I0J218750D01*
G01*
X144317700Y-74482550D01*
G75*
G02*
X144536450Y-74263800I218750J0D01*
G01*
G37*
%TD*%
%TO.C,R29*%
G36*
G01*
X146225550Y-75864200D02*
X146738050Y-75864200D01*
G75*
G02*
X146956800Y-76082950I0J-218750D01*
G01*
X146956800Y-76520450D01*
G75*
G02*
X146738050Y-76739200I-218750J0D01*
G01*
X146225550Y-76739200D01*
G75*
G02*
X146006800Y-76520450I0J218750D01*
G01*
X146006800Y-76082950D01*
G75*
G02*
X146225550Y-75864200I218750J0D01*
G01*
G37*
G36*
G01*
X146225550Y-74289200D02*
X146738050Y-74289200D01*
G75*
G02*
X146956800Y-74507950I0J-218750D01*
G01*
X146956800Y-74945450D01*
G75*
G02*
X146738050Y-75164200I-218750J0D01*
G01*
X146225550Y-75164200D01*
G75*
G02*
X146006800Y-74945450I0J218750D01*
G01*
X146006800Y-74507950D01*
G75*
G02*
X146225550Y-74289200I218750J0D01*
G01*
G37*
%TD*%
%TO.C,R28*%
G36*
G01*
X141158250Y-75838800D02*
X141670750Y-75838800D01*
G75*
G02*
X141889500Y-76057550I0J-218750D01*
G01*
X141889500Y-76495050D01*
G75*
G02*
X141670750Y-76713800I-218750J0D01*
G01*
X141158250Y-76713800D01*
G75*
G02*
X140939500Y-76495050I0J218750D01*
G01*
X140939500Y-76057550D01*
G75*
G02*
X141158250Y-75838800I218750J0D01*
G01*
G37*
G36*
G01*
X141158250Y-74263800D02*
X141670750Y-74263800D01*
G75*
G02*
X141889500Y-74482550I0J-218750D01*
G01*
X141889500Y-74920050D01*
G75*
G02*
X141670750Y-75138800I-218750J0D01*
G01*
X141158250Y-75138800D01*
G75*
G02*
X140939500Y-74920050I0J218750D01*
G01*
X140939500Y-74482550D01*
G75*
G02*
X141158250Y-74263800I218750J0D01*
G01*
G37*
%TD*%
%TO.C,R27*%
G36*
G01*
X139456450Y-75800700D02*
X139968950Y-75800700D01*
G75*
G02*
X140187700Y-76019450I0J-218750D01*
G01*
X140187700Y-76456950D01*
G75*
G02*
X139968950Y-76675700I-218750J0D01*
G01*
X139456450Y-76675700D01*
G75*
G02*
X139237700Y-76456950I0J218750D01*
G01*
X139237700Y-76019450D01*
G75*
G02*
X139456450Y-75800700I218750J0D01*
G01*
G37*
G36*
G01*
X139456450Y-74225700D02*
X139968950Y-74225700D01*
G75*
G02*
X140187700Y-74444450I0J-218750D01*
G01*
X140187700Y-74881950D01*
G75*
G02*
X139968950Y-75100700I-218750J0D01*
G01*
X139456450Y-75100700D01*
G75*
G02*
X139237700Y-74881950I0J218750D01*
G01*
X139237700Y-74444450D01*
G75*
G02*
X139456450Y-74225700I218750J0D01*
G01*
G37*
%TD*%
%TO.C,R26*%
G36*
G01*
X137767350Y-75803240D02*
X138279850Y-75803240D01*
G75*
G02*
X138498600Y-76021990I0J-218750D01*
G01*
X138498600Y-76459490D01*
G75*
G02*
X138279850Y-76678240I-218750J0D01*
G01*
X137767350Y-76678240D01*
G75*
G02*
X137548600Y-76459490I0J218750D01*
G01*
X137548600Y-76021990D01*
G75*
G02*
X137767350Y-75803240I218750J0D01*
G01*
G37*
G36*
G01*
X137767350Y-74228240D02*
X138279850Y-74228240D01*
G75*
G02*
X138498600Y-74446990I0J-218750D01*
G01*
X138498600Y-74884490D01*
G75*
G02*
X138279850Y-75103240I-218750J0D01*
G01*
X137767350Y-75103240D01*
G75*
G02*
X137548600Y-74884490I0J218750D01*
G01*
X137548600Y-74446990D01*
G75*
G02*
X137767350Y-74228240I218750J0D01*
G01*
G37*
%TD*%
%TO.C,R25*%
G36*
G01*
X136055390Y-75785460D02*
X136567890Y-75785460D01*
G75*
G02*
X136786640Y-76004210I0J-218750D01*
G01*
X136786640Y-76441710D01*
G75*
G02*
X136567890Y-76660460I-218750J0D01*
G01*
X136055390Y-76660460D01*
G75*
G02*
X135836640Y-76441710I0J218750D01*
G01*
X135836640Y-76004210D01*
G75*
G02*
X136055390Y-75785460I218750J0D01*
G01*
G37*
G36*
G01*
X136055390Y-74210460D02*
X136567890Y-74210460D01*
G75*
G02*
X136786640Y-74429210I0J-218750D01*
G01*
X136786640Y-74866710D01*
G75*
G02*
X136567890Y-75085460I-218750J0D01*
G01*
X136055390Y-75085460D01*
G75*
G02*
X135836640Y-74866710I0J218750D01*
G01*
X135836640Y-74429210D01*
G75*
G02*
X136055390Y-74210460I218750J0D01*
G01*
G37*
%TD*%
%TO.C,R24*%
G36*
G01*
X134373910Y-75785460D02*
X134886410Y-75785460D01*
G75*
G02*
X135105160Y-76004210I0J-218750D01*
G01*
X135105160Y-76441710D01*
G75*
G02*
X134886410Y-76660460I-218750J0D01*
G01*
X134373910Y-76660460D01*
G75*
G02*
X134155160Y-76441710I0J218750D01*
G01*
X134155160Y-76004210D01*
G75*
G02*
X134373910Y-75785460I218750J0D01*
G01*
G37*
G36*
G01*
X134373910Y-74210460D02*
X134886410Y-74210460D01*
G75*
G02*
X135105160Y-74429210I0J-218750D01*
G01*
X135105160Y-74866710D01*
G75*
G02*
X134886410Y-75085460I-218750J0D01*
G01*
X134373910Y-75085460D01*
G75*
G02*
X134155160Y-74866710I0J218750D01*
G01*
X134155160Y-74429210D01*
G75*
G02*
X134373910Y-74210460I218750J0D01*
G01*
G37*
%TD*%
%TO.C,R23*%
G36*
G01*
X132682270Y-75754980D02*
X133194770Y-75754980D01*
G75*
G02*
X133413520Y-75973730I0J-218750D01*
G01*
X133413520Y-76411230D01*
G75*
G02*
X133194770Y-76629980I-218750J0D01*
G01*
X132682270Y-76629980D01*
G75*
G02*
X132463520Y-76411230I0J218750D01*
G01*
X132463520Y-75973730D01*
G75*
G02*
X132682270Y-75754980I218750J0D01*
G01*
G37*
G36*
G01*
X132682270Y-74179980D02*
X133194770Y-74179980D01*
G75*
G02*
X133413520Y-74398730I0J-218750D01*
G01*
X133413520Y-74836230D01*
G75*
G02*
X133194770Y-75054980I-218750J0D01*
G01*
X132682270Y-75054980D01*
G75*
G02*
X132463520Y-74836230I0J218750D01*
G01*
X132463520Y-74398730D01*
G75*
G02*
X132682270Y-74179980I218750J0D01*
G01*
G37*
%TD*%
%TO.C,R22*%
G36*
G01*
X131010950Y-75737200D02*
X131523450Y-75737200D01*
G75*
G02*
X131742200Y-75955950I0J-218750D01*
G01*
X131742200Y-76393450D01*
G75*
G02*
X131523450Y-76612200I-218750J0D01*
G01*
X131010950Y-76612200D01*
G75*
G02*
X130792200Y-76393450I0J218750D01*
G01*
X130792200Y-75955950D01*
G75*
G02*
X131010950Y-75737200I218750J0D01*
G01*
G37*
G36*
G01*
X131010950Y-74162200D02*
X131523450Y-74162200D01*
G75*
G02*
X131742200Y-74380950I0J-218750D01*
G01*
X131742200Y-74818450D01*
G75*
G02*
X131523450Y-75037200I-218750J0D01*
G01*
X131010950Y-75037200D01*
G75*
G02*
X130792200Y-74818450I0J218750D01*
G01*
X130792200Y-74380950D01*
G75*
G02*
X131010950Y-74162200I218750J0D01*
G01*
G37*
%TD*%
%TO.C,R21*%
G36*
G01*
X109141550Y-75587340D02*
X109654050Y-75587340D01*
G75*
G02*
X109872800Y-75806090I0J-218750D01*
G01*
X109872800Y-76243590D01*
G75*
G02*
X109654050Y-76462340I-218750J0D01*
G01*
X109141550Y-76462340D01*
G75*
G02*
X108922800Y-76243590I0J218750D01*
G01*
X108922800Y-75806090D01*
G75*
G02*
X109141550Y-75587340I218750J0D01*
G01*
G37*
G36*
G01*
X109141550Y-74012340D02*
X109654050Y-74012340D01*
G75*
G02*
X109872800Y-74231090I0J-218750D01*
G01*
X109872800Y-74668590D01*
G75*
G02*
X109654050Y-74887340I-218750J0D01*
G01*
X109141550Y-74887340D01*
G75*
G02*
X108922800Y-74668590I0J218750D01*
G01*
X108922800Y-74231090D01*
G75*
G02*
X109141550Y-74012340I218750J0D01*
G01*
G37*
%TD*%
%TO.C,R20*%
G36*
G01*
X110878910Y-75587340D02*
X111391410Y-75587340D01*
G75*
G02*
X111610160Y-75806090I0J-218750D01*
G01*
X111610160Y-76243590D01*
G75*
G02*
X111391410Y-76462340I-218750J0D01*
G01*
X110878910Y-76462340D01*
G75*
G02*
X110660160Y-76243590I0J218750D01*
G01*
X110660160Y-75806090D01*
G75*
G02*
X110878910Y-75587340I218750J0D01*
G01*
G37*
G36*
G01*
X110878910Y-74012340D02*
X111391410Y-74012340D01*
G75*
G02*
X111610160Y-74231090I0J-218750D01*
G01*
X111610160Y-74668590D01*
G75*
G02*
X111391410Y-74887340I-218750J0D01*
G01*
X110878910Y-74887340D01*
G75*
G02*
X110660160Y-74668590I0J218750D01*
G01*
X110660160Y-74231090D01*
G75*
G02*
X110878910Y-74012340I218750J0D01*
G01*
G37*
%TD*%
%TO.C,R19*%
G36*
G01*
X112601030Y-75592420D02*
X113113530Y-75592420D01*
G75*
G02*
X113332280Y-75811170I0J-218750D01*
G01*
X113332280Y-76248670D01*
G75*
G02*
X113113530Y-76467420I-218750J0D01*
G01*
X112601030Y-76467420D01*
G75*
G02*
X112382280Y-76248670I0J218750D01*
G01*
X112382280Y-75811170D01*
G75*
G02*
X112601030Y-75592420I218750J0D01*
G01*
G37*
G36*
G01*
X112601030Y-74017420D02*
X113113530Y-74017420D01*
G75*
G02*
X113332280Y-74236170I0J-218750D01*
G01*
X113332280Y-74673670D01*
G75*
G02*
X113113530Y-74892420I-218750J0D01*
G01*
X112601030Y-74892420D01*
G75*
G02*
X112382280Y-74673670I0J218750D01*
G01*
X112382280Y-74236170D01*
G75*
G02*
X112601030Y-74017420I218750J0D01*
G01*
G37*
%TD*%
%TO.C,R18*%
G36*
G01*
X107470230Y-75572100D02*
X107982730Y-75572100D01*
G75*
G02*
X108201480Y-75790850I0J-218750D01*
G01*
X108201480Y-76228350D01*
G75*
G02*
X107982730Y-76447100I-218750J0D01*
G01*
X107470230Y-76447100D01*
G75*
G02*
X107251480Y-76228350I0J218750D01*
G01*
X107251480Y-75790850D01*
G75*
G02*
X107470230Y-75572100I218750J0D01*
G01*
G37*
G36*
G01*
X107470230Y-73997100D02*
X107982730Y-73997100D01*
G75*
G02*
X108201480Y-74215850I0J-218750D01*
G01*
X108201480Y-74653350D01*
G75*
G02*
X107982730Y-74872100I-218750J0D01*
G01*
X107470230Y-74872100D01*
G75*
G02*
X107251480Y-74653350I0J218750D01*
G01*
X107251480Y-74215850D01*
G75*
G02*
X107470230Y-73997100I218750J0D01*
G01*
G37*
%TD*%
%TO.C,R17*%
G36*
G01*
X105798910Y-75567020D02*
X106311410Y-75567020D01*
G75*
G02*
X106530160Y-75785770I0J-218750D01*
G01*
X106530160Y-76223270D01*
G75*
G02*
X106311410Y-76442020I-218750J0D01*
G01*
X105798910Y-76442020D01*
G75*
G02*
X105580160Y-76223270I0J218750D01*
G01*
X105580160Y-75785770D01*
G75*
G02*
X105798910Y-75567020I218750J0D01*
G01*
G37*
G36*
G01*
X105798910Y-73992020D02*
X106311410Y-73992020D01*
G75*
G02*
X106530160Y-74210770I0J-218750D01*
G01*
X106530160Y-74648270D01*
G75*
G02*
X106311410Y-74867020I-218750J0D01*
G01*
X105798910Y-74867020D01*
G75*
G02*
X105580160Y-74648270I0J218750D01*
G01*
X105580160Y-74210770D01*
G75*
G02*
X105798910Y-73992020I218750J0D01*
G01*
G37*
%TD*%
%TO.C,R16*%
G36*
G01*
X104112350Y-75559400D02*
X104624850Y-75559400D01*
G75*
G02*
X104843600Y-75778150I0J-218750D01*
G01*
X104843600Y-76215650D01*
G75*
G02*
X104624850Y-76434400I-218750J0D01*
G01*
X104112350Y-76434400D01*
G75*
G02*
X103893600Y-76215650I0J218750D01*
G01*
X103893600Y-75778150D01*
G75*
G02*
X104112350Y-75559400I218750J0D01*
G01*
G37*
G36*
G01*
X104112350Y-73984400D02*
X104624850Y-73984400D01*
G75*
G02*
X104843600Y-74203150I0J-218750D01*
G01*
X104843600Y-74640650D01*
G75*
G02*
X104624850Y-74859400I-218750J0D01*
G01*
X104112350Y-74859400D01*
G75*
G02*
X103893600Y-74640650I0J218750D01*
G01*
X103893600Y-74203150D01*
G75*
G02*
X104112350Y-73984400I218750J0D01*
G01*
G37*
%TD*%
%TO.C,R15*%
G36*
G01*
X102385150Y-75559400D02*
X102897650Y-75559400D01*
G75*
G02*
X103116400Y-75778150I0J-218750D01*
G01*
X103116400Y-76215650D01*
G75*
G02*
X102897650Y-76434400I-218750J0D01*
G01*
X102385150Y-76434400D01*
G75*
G02*
X102166400Y-76215650I0J218750D01*
G01*
X102166400Y-75778150D01*
G75*
G02*
X102385150Y-75559400I218750J0D01*
G01*
G37*
G36*
G01*
X102385150Y-73984400D02*
X102897650Y-73984400D01*
G75*
G02*
X103116400Y-74203150I0J-218750D01*
G01*
X103116400Y-74640650D01*
G75*
G02*
X102897650Y-74859400I-218750J0D01*
G01*
X102385150Y-74859400D01*
G75*
G02*
X102166400Y-74640650I0J218750D01*
G01*
X102166400Y-74203150D01*
G75*
G02*
X102385150Y-73984400I218750J0D01*
G01*
G37*
%TD*%
%TO.C,R14*%
G36*
G01*
X100632550Y-75559400D02*
X101145050Y-75559400D01*
G75*
G02*
X101363800Y-75778150I0J-218750D01*
G01*
X101363800Y-76215650D01*
G75*
G02*
X101145050Y-76434400I-218750J0D01*
G01*
X100632550Y-76434400D01*
G75*
G02*
X100413800Y-76215650I0J218750D01*
G01*
X100413800Y-75778150D01*
G75*
G02*
X100632550Y-75559400I218750J0D01*
G01*
G37*
G36*
G01*
X100632550Y-73984400D02*
X101145050Y-73984400D01*
G75*
G02*
X101363800Y-74203150I0J-218750D01*
G01*
X101363800Y-74640650D01*
G75*
G02*
X101145050Y-74859400I-218750J0D01*
G01*
X100632550Y-74859400D01*
G75*
G02*
X100413800Y-74640650I0J218750D01*
G01*
X100413800Y-74203150D01*
G75*
G02*
X100632550Y-73984400I218750J0D01*
G01*
G37*
%TD*%
%TO.C,R13*%
G36*
G01*
X98841850Y-75534100D02*
X99354350Y-75534100D01*
G75*
G02*
X99573100Y-75752850I0J-218750D01*
G01*
X99573100Y-76190350D01*
G75*
G02*
X99354350Y-76409100I-218750J0D01*
G01*
X98841850Y-76409100D01*
G75*
G02*
X98623100Y-76190350I0J218750D01*
G01*
X98623100Y-75752850D01*
G75*
G02*
X98841850Y-75534100I218750J0D01*
G01*
G37*
G36*
G01*
X98841850Y-73959100D02*
X99354350Y-73959100D01*
G75*
G02*
X99573100Y-74177850I0J-218750D01*
G01*
X99573100Y-74615350D01*
G75*
G02*
X99354350Y-74834100I-218750J0D01*
G01*
X98841850Y-74834100D01*
G75*
G02*
X98623100Y-74615350I0J218750D01*
G01*
X98623100Y-74177850D01*
G75*
G02*
X98841850Y-73959100I218750J0D01*
G01*
G37*
%TD*%
%TO.C,R12*%
G36*
G01*
X97025750Y-75521300D02*
X97538250Y-75521300D01*
G75*
G02*
X97757000Y-75740050I0J-218750D01*
G01*
X97757000Y-76177550D01*
G75*
G02*
X97538250Y-76396300I-218750J0D01*
G01*
X97025750Y-76396300D01*
G75*
G02*
X96807000Y-76177550I0J218750D01*
G01*
X96807000Y-75740050D01*
G75*
G02*
X97025750Y-75521300I218750J0D01*
G01*
G37*
G36*
G01*
X97025750Y-73946300D02*
X97538250Y-73946300D01*
G75*
G02*
X97757000Y-74165050I0J-218750D01*
G01*
X97757000Y-74602550D01*
G75*
G02*
X97538250Y-74821300I-218750J0D01*
G01*
X97025750Y-74821300D01*
G75*
G02*
X96807000Y-74602550I0J218750D01*
G01*
X96807000Y-74165050D01*
G75*
G02*
X97025750Y-73946300I218750J0D01*
G01*
G37*
%TD*%
D13*
%TO.C,Q30*%
X245076800Y-68541900D03*
X245076800Y-67591900D03*
X245076800Y-69491900D03*
X247276800Y-69491900D03*
X247276800Y-68541900D03*
X247276800Y-67591900D03*
%TD*%
%TO.C,Q29*%
X242044400Y-68516500D03*
X242044400Y-69466500D03*
X242044400Y-67566500D03*
X239844400Y-67566500D03*
X239844400Y-68516500D03*
X239844400Y-69466500D03*
%TD*%
%TO.C,Q28*%
X236697700Y-68440300D03*
X236697700Y-69390300D03*
X236697700Y-67490300D03*
X234497700Y-67490300D03*
X234497700Y-68440300D03*
X234497700Y-69390300D03*
%TD*%
%TO.C,Q27*%
X231605000Y-68478400D03*
X231605000Y-69428400D03*
X231605000Y-67528400D03*
X229405000Y-67528400D03*
X229405000Y-68478400D03*
X229405000Y-69428400D03*
%TD*%
%TO.C,Q26*%
X226601200Y-68478400D03*
X226601200Y-69428400D03*
X226601200Y-67528400D03*
X224401200Y-67528400D03*
X224401200Y-68478400D03*
X224401200Y-69428400D03*
%TD*%
%TO.C,Q25*%
X214563600Y-68414900D03*
X214563600Y-67464900D03*
X214563600Y-69364900D03*
X216763600Y-69364900D03*
X216763600Y-68414900D03*
X216763600Y-67464900D03*
%TD*%
%TO.C,Q24*%
X211640600Y-68440300D03*
X211640600Y-69390300D03*
X211640600Y-67490300D03*
X209440600Y-67490300D03*
X209440600Y-68440300D03*
X209440600Y-69390300D03*
%TD*%
%TO.C,Q23*%
X206738400Y-68440300D03*
X206738400Y-69390300D03*
X206738400Y-67490300D03*
X204538400Y-67490300D03*
X204538400Y-68440300D03*
X204538400Y-69390300D03*
%TD*%
%TO.C,Q22*%
X201671100Y-68414900D03*
X201671100Y-69364900D03*
X201671100Y-67464900D03*
X199471100Y-67464900D03*
X199471100Y-68414900D03*
X199471100Y-69364900D03*
%TD*%
%TO.C,Q21*%
X196883200Y-68414900D03*
X196883200Y-69364900D03*
X196883200Y-67464900D03*
X194683200Y-67464900D03*
X194683200Y-68414900D03*
X194683200Y-69364900D03*
%TD*%
%TO.C,Q20*%
X180738600Y-68249800D03*
X180738600Y-67299800D03*
X180738600Y-69199800D03*
X182938600Y-69199800D03*
X182938600Y-68249800D03*
X182938600Y-67299800D03*
%TD*%
%TO.C,Q19*%
X177655400Y-68249800D03*
X177655400Y-69199800D03*
X177655400Y-67299800D03*
X175455400Y-67299800D03*
X175455400Y-68249800D03*
X175455400Y-69199800D03*
%TD*%
%TO.C,Q18*%
X172461100Y-68300600D03*
X172461100Y-69250600D03*
X172461100Y-67350600D03*
X170261100Y-67350600D03*
X170261100Y-68300600D03*
X170261100Y-69250600D03*
%TD*%
%TO.C,Q17*%
X167304900Y-68300600D03*
X167304900Y-69250600D03*
X167304900Y-67350600D03*
X165104900Y-67350600D03*
X165104900Y-68300600D03*
X165104900Y-69250600D03*
%TD*%
%TO.C,Q16*%
X162440800Y-68300600D03*
X162440800Y-69250600D03*
X162440800Y-67350600D03*
X160240800Y-67350600D03*
X160240800Y-68300600D03*
X160240800Y-69250600D03*
%TD*%
%TO.C,Q15*%
X149471200Y-68275200D03*
X149471200Y-67325200D03*
X149471200Y-69225200D03*
X151671200Y-69225200D03*
X151671200Y-68275200D03*
X151671200Y-67325200D03*
%TD*%
%TO.C,Q14*%
X146476900Y-68199000D03*
X146476900Y-69149000D03*
X146476900Y-67249000D03*
X144276900Y-67249000D03*
X144276900Y-68199000D03*
X144276900Y-69149000D03*
%TD*%
%TO.C,Q13*%
X141244500Y-68097400D03*
X141244500Y-69047400D03*
X141244500Y-67147400D03*
X139044500Y-67147400D03*
X139044500Y-68097400D03*
X139044500Y-69047400D03*
%TD*%
%TO.C,Q12*%
X136185000Y-68125300D03*
X136185000Y-69075300D03*
X136185000Y-67175300D03*
X133985000Y-67175300D03*
X133985000Y-68125300D03*
X133985000Y-69075300D03*
%TD*%
%TO.C,Q11*%
X130881300Y-68160900D03*
X130881300Y-69110900D03*
X130881300Y-67210900D03*
X128681300Y-67210900D03*
X128681300Y-68160900D03*
X128681300Y-69110900D03*
%TD*%
%TO.C,Q10*%
X117406600Y-69380100D03*
X117406600Y-70330100D03*
X117406600Y-68430100D03*
X115206600Y-68430100D03*
X115206600Y-69380100D03*
X115206600Y-70330100D03*
%TD*%
%TO.C,Q9*%
X111818600Y-69380100D03*
X111818600Y-70330100D03*
X111818600Y-68430100D03*
X109618600Y-68430100D03*
X109618600Y-69380100D03*
X109618600Y-70330100D03*
%TD*%
%TO.C,Q8*%
X106365400Y-69433400D03*
X106365400Y-70383400D03*
X106365400Y-68483400D03*
X104165400Y-68483400D03*
X104165400Y-69433400D03*
X104165400Y-70383400D03*
%TD*%
%TO.C,Q7*%
X100909300Y-69380100D03*
X100909300Y-70330100D03*
X100909300Y-68430100D03*
X98709300Y-68430100D03*
X98709300Y-69380100D03*
X98709300Y-70330100D03*
%TD*%
%TO.C,Q6*%
X95715000Y-69354700D03*
X95715000Y-70304700D03*
X95715000Y-68404700D03*
X93515000Y-68404700D03*
X93515000Y-69354700D03*
X93515000Y-70304700D03*
%TD*%
%TO.C,C8*%
G36*
G01*
X195556850Y-82669900D02*
X195044350Y-82669900D01*
G75*
G02*
X194825600Y-82451150I0J218750D01*
G01*
X194825600Y-82013650D01*
G75*
G02*
X195044350Y-81794900I218750J0D01*
G01*
X195556850Y-81794900D01*
G75*
G02*
X195775600Y-82013650I0J-218750D01*
G01*
X195775600Y-82451150D01*
G75*
G02*
X195556850Y-82669900I-218750J0D01*
G01*
G37*
G36*
G01*
X195556850Y-84244900D02*
X195044350Y-84244900D01*
G75*
G02*
X194825600Y-84026150I0J218750D01*
G01*
X194825600Y-83588650D01*
G75*
G02*
X195044350Y-83369900I218750J0D01*
G01*
X195556850Y-83369900D01*
G75*
G02*
X195775600Y-83588650I0J-218750D01*
G01*
X195775600Y-84026150D01*
G75*
G02*
X195556850Y-84244900I-218750J0D01*
G01*
G37*
%TD*%
%TO.C,C7*%
G36*
G01*
X224970050Y-82771400D02*
X224457550Y-82771400D01*
G75*
G02*
X224238800Y-82552650I0J218750D01*
G01*
X224238800Y-82115150D01*
G75*
G02*
X224457550Y-81896400I218750J0D01*
G01*
X224970050Y-81896400D01*
G75*
G02*
X225188800Y-82115150I0J-218750D01*
G01*
X225188800Y-82552650D01*
G75*
G02*
X224970050Y-82771400I-218750J0D01*
G01*
G37*
G36*
G01*
X224970050Y-84346400D02*
X224457550Y-84346400D01*
G75*
G02*
X224238800Y-84127650I0J218750D01*
G01*
X224238800Y-83690150D01*
G75*
G02*
X224457550Y-83471400I218750J0D01*
G01*
X224970050Y-83471400D01*
G75*
G02*
X225188800Y-83690150I0J-218750D01*
G01*
X225188800Y-84127650D01*
G75*
G02*
X224970050Y-84346400I-218750J0D01*
G01*
G37*
%TD*%
%TO.C,C6*%
G36*
G01*
X160911250Y-81742800D02*
X160398750Y-81742800D01*
G75*
G02*
X160180000Y-81524050I0J218750D01*
G01*
X160180000Y-81086550D01*
G75*
G02*
X160398750Y-80867800I218750J0D01*
G01*
X160911250Y-80867800D01*
G75*
G02*
X161130000Y-81086550I0J-218750D01*
G01*
X161130000Y-81524050D01*
G75*
G02*
X160911250Y-81742800I-218750J0D01*
G01*
G37*
G36*
G01*
X160911250Y-83317800D02*
X160398750Y-83317800D01*
G75*
G02*
X160180000Y-83099050I0J218750D01*
G01*
X160180000Y-82661550D01*
G75*
G02*
X160398750Y-82442800I218750J0D01*
G01*
X160911250Y-82442800D01*
G75*
G02*
X161130000Y-82661550I0J-218750D01*
G01*
X161130000Y-83099050D01*
G75*
G02*
X160911250Y-83317800I-218750J0D01*
G01*
G37*
%TD*%
%TO.C,C5*%
G36*
G01*
X129720050Y-81780900D02*
X129207550Y-81780900D01*
G75*
G02*
X128988800Y-81562150I0J218750D01*
G01*
X128988800Y-81124650D01*
G75*
G02*
X129207550Y-80905900I218750J0D01*
G01*
X129720050Y-80905900D01*
G75*
G02*
X129938800Y-81124650I0J-218750D01*
G01*
X129938800Y-81562150D01*
G75*
G02*
X129720050Y-81780900I-218750J0D01*
G01*
G37*
G36*
G01*
X129720050Y-83355900D02*
X129207550Y-83355900D01*
G75*
G02*
X128988800Y-83137150I0J218750D01*
G01*
X128988800Y-82699650D01*
G75*
G02*
X129207550Y-82480900I218750J0D01*
G01*
X129720050Y-82480900D01*
G75*
G02*
X129938800Y-82699650I0J-218750D01*
G01*
X129938800Y-83137150D01*
G75*
G02*
X129720050Y-83355900I-218750J0D01*
G01*
G37*
%TD*%
%TO.C,C4*%
G36*
G01*
X94622330Y-81364340D02*
X94109830Y-81364340D01*
G75*
G02*
X93891080Y-81145590I0J218750D01*
G01*
X93891080Y-80708090D01*
G75*
G02*
X94109830Y-80489340I218750J0D01*
G01*
X94622330Y-80489340D01*
G75*
G02*
X94841080Y-80708090I0J-218750D01*
G01*
X94841080Y-81145590D01*
G75*
G02*
X94622330Y-81364340I-218750J0D01*
G01*
G37*
G36*
G01*
X94622330Y-82939340D02*
X94109830Y-82939340D01*
G75*
G02*
X93891080Y-82720590I0J218750D01*
G01*
X93891080Y-82283090D01*
G75*
G02*
X94109830Y-82064340I218750J0D01*
G01*
X94622330Y-82064340D01*
G75*
G02*
X94841080Y-82283090I0J-218750D01*
G01*
X94841080Y-82720590D01*
G75*
G02*
X94622330Y-82939340I-218750J0D01*
G01*
G37*
%TD*%
%TO.C,Q5*%
X78579800Y-70802500D03*
X78579800Y-69852500D03*
X78579800Y-71752500D03*
X80779800Y-71752500D03*
X80779800Y-70802500D03*
X80779800Y-69852500D03*
%TD*%
D14*
%TO.C,J3*%
X214579200Y-105359200D03*
D15*
X214579200Y-102819200D03*
D14*
X217119200Y-105359200D03*
X217119200Y-102819200D03*
X219659200Y-105359200D03*
D16*
X219659200Y-102819200D03*
%TD*%
D17*
%TO.C,U6*%
X236778800Y-80167500D03*
X236778800Y-85567500D03*
X235508800Y-80167500D03*
X235508800Y-85567500D03*
X234238800Y-80167500D03*
X234238800Y-85567500D03*
X232968800Y-80167500D03*
X232968800Y-85567500D03*
X231698800Y-80167500D03*
X231698800Y-85567500D03*
X230428800Y-80167500D03*
X230428800Y-85567500D03*
X229158800Y-80167500D03*
X229158800Y-85567500D03*
X227888800Y-80167500D03*
X227888800Y-85567500D03*
%TD*%
%TO.C,U5*%
X207772000Y-80053200D03*
X207772000Y-85453200D03*
X206502000Y-80053200D03*
X206502000Y-85453200D03*
X205232000Y-80053200D03*
X205232000Y-85453200D03*
X203962000Y-80053200D03*
X203962000Y-85453200D03*
X202692000Y-80053200D03*
X202692000Y-85453200D03*
X201422000Y-80053200D03*
X201422000Y-85453200D03*
X200152000Y-80053200D03*
X200152000Y-85453200D03*
X198882000Y-80053200D03*
X198882000Y-85453200D03*
%TD*%
%TO.C,U4*%
X172923200Y-79138800D03*
X172923200Y-84538800D03*
X171653200Y-79138800D03*
X171653200Y-84538800D03*
X170383200Y-79138800D03*
X170383200Y-84538800D03*
X169113200Y-79138800D03*
X169113200Y-84538800D03*
X167843200Y-79138800D03*
X167843200Y-84538800D03*
X166573200Y-79138800D03*
X166573200Y-84538800D03*
X165303200Y-79138800D03*
X165303200Y-84538800D03*
X164033200Y-79138800D03*
X164033200Y-84538800D03*
%TD*%
%TO.C,U3*%
X141757400Y-79291200D03*
X141757400Y-84691200D03*
X140487400Y-79291200D03*
X140487400Y-84691200D03*
X139217400Y-79291200D03*
X139217400Y-84691200D03*
X137947400Y-79291200D03*
X137947400Y-84691200D03*
X136677400Y-79291200D03*
X136677400Y-84691200D03*
X135407400Y-79291200D03*
X135407400Y-84691200D03*
X134137400Y-79291200D03*
X134137400Y-84691200D03*
X132867400Y-79291200D03*
X132867400Y-84691200D03*
%TD*%
%TO.C,U2*%
X107950000Y-79088000D03*
X107950000Y-84488000D03*
X106680000Y-79088000D03*
X106680000Y-84488000D03*
X105410000Y-79088000D03*
X105410000Y-84488000D03*
X104140000Y-79088000D03*
X104140000Y-84488000D03*
X102870000Y-79088000D03*
X102870000Y-84488000D03*
X101600000Y-79088000D03*
X101600000Y-84488000D03*
X100330000Y-79088000D03*
X100330000Y-84488000D03*
X99060000Y-79088000D03*
X99060000Y-84488000D03*
%TD*%
D10*
%TO.C,N4*%
X198214620Y-40999999D03*
X195956300Y-44079971D03*
X195178550Y-47819130D03*
X196021430Y-51544160D03*
X213090610Y-48993157D03*
X198333170Y-54584250D03*
X201697470Y-56391900D03*
X205508484Y-56641740D03*
X209079950Y-55288635D03*
X211768730Y-52576296D03*
X212807578Y-45184462D03*
X210316180Y-41158420D03*
X207910400Y-39550950D03*
X204178200Y-38740600D03*
D11*
X204178200Y-47740600D03*
%TD*%
D10*
%TO.C,N3*%
X163214620Y-40999999D03*
X160956300Y-44079971D03*
X160178550Y-47819130D03*
X161021430Y-51544160D03*
X178090610Y-48993157D03*
X163333170Y-54584250D03*
X166697470Y-56391900D03*
X170508484Y-56641740D03*
X174079950Y-55288635D03*
X176768730Y-52576296D03*
X177807578Y-45184462D03*
X175316180Y-41158420D03*
X172910400Y-39550950D03*
X169178200Y-38740600D03*
D11*
X169178200Y-47740600D03*
%TD*%
D10*
%TO.C,N2*%
X133214620Y-40999999D03*
X130956300Y-44079971D03*
X130178550Y-47819130D03*
X131021430Y-51544160D03*
X148090610Y-48993157D03*
X133333170Y-54584250D03*
X136697470Y-56391900D03*
X140508484Y-56641740D03*
X144079950Y-55288635D03*
X146768730Y-52576296D03*
X147807578Y-45184462D03*
X145316180Y-41158420D03*
X142910400Y-39550950D03*
X139178200Y-38740600D03*
D11*
X139178200Y-47740600D03*
%TD*%
D10*
%TO.C,N1*%
X98214620Y-40999999D03*
X95956300Y-44079971D03*
X95178550Y-47819130D03*
X96021430Y-51544160D03*
X113090610Y-48993157D03*
X98333170Y-54584250D03*
X101697470Y-56391900D03*
X105508484Y-56641740D03*
X109079950Y-55288635D03*
X111768730Y-52576296D03*
X112807578Y-45184462D03*
X110316180Y-41158420D03*
X107910400Y-39550950D03*
X104178200Y-38740600D03*
D11*
X104178200Y-47740600D03*
%TD*%
D17*
%TO.C,U1*%
X67623200Y-81040600D03*
X67623200Y-86440600D03*
X66353200Y-81040600D03*
X66353200Y-86440600D03*
X65083200Y-81040600D03*
X65083200Y-86440600D03*
X63813200Y-81040600D03*
X63813200Y-86440600D03*
X62543200Y-81040600D03*
X62543200Y-86440600D03*
X61273200Y-81040600D03*
X61273200Y-86440600D03*
X60003200Y-81040600D03*
X60003200Y-86440600D03*
X58733200Y-81040600D03*
X58733200Y-86440600D03*
%TD*%
%TO.C,R10*%
G36*
G01*
X68450750Y-77616800D02*
X68963250Y-77616800D01*
G75*
G02*
X69182000Y-77835550I0J-218750D01*
G01*
X69182000Y-78273050D01*
G75*
G02*
X68963250Y-78491800I-218750J0D01*
G01*
X68450750Y-78491800D01*
G75*
G02*
X68232000Y-78273050I0J218750D01*
G01*
X68232000Y-77835550D01*
G75*
G02*
X68450750Y-77616800I218750J0D01*
G01*
G37*
G36*
G01*
X68450750Y-76041800D02*
X68963250Y-76041800D01*
G75*
G02*
X69182000Y-76260550I0J-218750D01*
G01*
X69182000Y-76698050D01*
G75*
G02*
X68963250Y-76916800I-218750J0D01*
G01*
X68450750Y-76916800D01*
G75*
G02*
X68232000Y-76698050I0J218750D01*
G01*
X68232000Y-76260550D01*
G75*
G02*
X68450750Y-76041800I218750J0D01*
G01*
G37*
%TD*%
%TO.C,R9*%
G36*
G01*
X70127150Y-77642200D02*
X70639650Y-77642200D01*
G75*
G02*
X70858400Y-77860950I0J-218750D01*
G01*
X70858400Y-78298450D01*
G75*
G02*
X70639650Y-78517200I-218750J0D01*
G01*
X70127150Y-78517200D01*
G75*
G02*
X69908400Y-78298450I0J218750D01*
G01*
X69908400Y-77860950D01*
G75*
G02*
X70127150Y-77642200I218750J0D01*
G01*
G37*
G36*
G01*
X70127150Y-76067200D02*
X70639650Y-76067200D01*
G75*
G02*
X70858400Y-76285950I0J-218750D01*
G01*
X70858400Y-76723450D01*
G75*
G02*
X70639650Y-76942200I-218750J0D01*
G01*
X70127150Y-76942200D01*
G75*
G02*
X69908400Y-76723450I0J218750D01*
G01*
X69908400Y-76285950D01*
G75*
G02*
X70127150Y-76067200I218750J0D01*
G01*
G37*
%TD*%
%TO.C,R8*%
G36*
G01*
X71778150Y-77667700D02*
X72290650Y-77667700D01*
G75*
G02*
X72509400Y-77886450I0J-218750D01*
G01*
X72509400Y-78323950D01*
G75*
G02*
X72290650Y-78542700I-218750J0D01*
G01*
X71778150Y-78542700D01*
G75*
G02*
X71559400Y-78323950I0J218750D01*
G01*
X71559400Y-77886450D01*
G75*
G02*
X71778150Y-77667700I218750J0D01*
G01*
G37*
G36*
G01*
X71778150Y-76092700D02*
X72290650Y-76092700D01*
G75*
G02*
X72509400Y-76311450I0J-218750D01*
G01*
X72509400Y-76748950D01*
G75*
G02*
X72290650Y-76967700I-218750J0D01*
G01*
X71778150Y-76967700D01*
G75*
G02*
X71559400Y-76748950I0J218750D01*
G01*
X71559400Y-76311450D01*
G75*
G02*
X71778150Y-76092700I218750J0D01*
G01*
G37*
%TD*%
%TO.C,R7*%
G36*
G01*
X66799750Y-77591400D02*
X67312250Y-77591400D01*
G75*
G02*
X67531000Y-77810150I0J-218750D01*
G01*
X67531000Y-78247650D01*
G75*
G02*
X67312250Y-78466400I-218750J0D01*
G01*
X66799750Y-78466400D01*
G75*
G02*
X66581000Y-78247650I0J218750D01*
G01*
X66581000Y-77810150D01*
G75*
G02*
X66799750Y-77591400I218750J0D01*
G01*
G37*
G36*
G01*
X66799750Y-76016400D02*
X67312250Y-76016400D01*
G75*
G02*
X67531000Y-76235150I0J-218750D01*
G01*
X67531000Y-76672650D01*
G75*
G02*
X67312250Y-76891400I-218750J0D01*
G01*
X66799750Y-76891400D01*
G75*
G02*
X66581000Y-76672650I0J218750D01*
G01*
X66581000Y-76235150D01*
G75*
G02*
X66799750Y-76016400I218750J0D01*
G01*
G37*
%TD*%
%TO.C,R6*%
G36*
G01*
X65174150Y-77591400D02*
X65686650Y-77591400D01*
G75*
G02*
X65905400Y-77810150I0J-218750D01*
G01*
X65905400Y-78247650D01*
G75*
G02*
X65686650Y-78466400I-218750J0D01*
G01*
X65174150Y-78466400D01*
G75*
G02*
X64955400Y-78247650I0J218750D01*
G01*
X64955400Y-77810150D01*
G75*
G02*
X65174150Y-77591400I218750J0D01*
G01*
G37*
G36*
G01*
X65174150Y-76016400D02*
X65686650Y-76016400D01*
G75*
G02*
X65905400Y-76235150I0J-218750D01*
G01*
X65905400Y-76672650D01*
G75*
G02*
X65686650Y-76891400I-218750J0D01*
G01*
X65174150Y-76891400D01*
G75*
G02*
X64955400Y-76672650I0J218750D01*
G01*
X64955400Y-76235150D01*
G75*
G02*
X65174150Y-76016400I218750J0D01*
G01*
G37*
%TD*%
%TO.C,R5*%
G36*
G01*
X63548550Y-77591300D02*
X64061050Y-77591300D01*
G75*
G02*
X64279800Y-77810050I0J-218750D01*
G01*
X64279800Y-78247550D01*
G75*
G02*
X64061050Y-78466300I-218750J0D01*
G01*
X63548550Y-78466300D01*
G75*
G02*
X63329800Y-78247550I0J218750D01*
G01*
X63329800Y-77810050D01*
G75*
G02*
X63548550Y-77591300I218750J0D01*
G01*
G37*
G36*
G01*
X63548550Y-76016300D02*
X64061050Y-76016300D01*
G75*
G02*
X64279800Y-76235050I0J-218750D01*
G01*
X64279800Y-76672550D01*
G75*
G02*
X64061050Y-76891300I-218750J0D01*
G01*
X63548550Y-76891300D01*
G75*
G02*
X63329800Y-76672550I0J218750D01*
G01*
X63329800Y-76235050D01*
G75*
G02*
X63548550Y-76016300I218750J0D01*
G01*
G37*
%TD*%
%TO.C,R4*%
G36*
G01*
X61922950Y-77591300D02*
X62435450Y-77591300D01*
G75*
G02*
X62654200Y-77810050I0J-218750D01*
G01*
X62654200Y-78247550D01*
G75*
G02*
X62435450Y-78466300I-218750J0D01*
G01*
X61922950Y-78466300D01*
G75*
G02*
X61704200Y-78247550I0J218750D01*
G01*
X61704200Y-77810050D01*
G75*
G02*
X61922950Y-77591300I218750J0D01*
G01*
G37*
G36*
G01*
X61922950Y-76016300D02*
X62435450Y-76016300D01*
G75*
G02*
X62654200Y-76235050I0J-218750D01*
G01*
X62654200Y-76672550D01*
G75*
G02*
X62435450Y-76891300I-218750J0D01*
G01*
X61922950Y-76891300D01*
G75*
G02*
X61704200Y-76672550I0J218750D01*
G01*
X61704200Y-76235050D01*
G75*
G02*
X61922950Y-76016300I218750J0D01*
G01*
G37*
%TD*%
%TO.C,R3*%
G36*
G01*
X60271950Y-77591300D02*
X60784450Y-77591300D01*
G75*
G02*
X61003200Y-77810050I0J-218750D01*
G01*
X61003200Y-78247550D01*
G75*
G02*
X60784450Y-78466300I-218750J0D01*
G01*
X60271950Y-78466300D01*
G75*
G02*
X60053200Y-78247550I0J218750D01*
G01*
X60053200Y-77810050D01*
G75*
G02*
X60271950Y-77591300I218750J0D01*
G01*
G37*
G36*
G01*
X60271950Y-76016300D02*
X60784450Y-76016300D01*
G75*
G02*
X61003200Y-76235050I0J-218750D01*
G01*
X61003200Y-76672550D01*
G75*
G02*
X60784450Y-76891300I-218750J0D01*
G01*
X60271950Y-76891300D01*
G75*
G02*
X60053200Y-76672550I0J218750D01*
G01*
X60053200Y-76235050D01*
G75*
G02*
X60271950Y-76016300I218750J0D01*
G01*
G37*
%TD*%
%TO.C,R2*%
G36*
G01*
X58646350Y-77591400D02*
X59158850Y-77591400D01*
G75*
G02*
X59377600Y-77810150I0J-218750D01*
G01*
X59377600Y-78247650D01*
G75*
G02*
X59158850Y-78466400I-218750J0D01*
G01*
X58646350Y-78466400D01*
G75*
G02*
X58427600Y-78247650I0J218750D01*
G01*
X58427600Y-77810150D01*
G75*
G02*
X58646350Y-77591400I218750J0D01*
G01*
G37*
G36*
G01*
X58646350Y-76016400D02*
X59158850Y-76016400D01*
G75*
G02*
X59377600Y-76235150I0J-218750D01*
G01*
X59377600Y-76672650D01*
G75*
G02*
X59158850Y-76891400I-218750J0D01*
G01*
X58646350Y-76891400D01*
G75*
G02*
X58427600Y-76672650I0J218750D01*
G01*
X58427600Y-76235150D01*
G75*
G02*
X58646350Y-76016400I218750J0D01*
G01*
G37*
%TD*%
%TO.C,R1*%
G36*
G01*
X56969950Y-77591400D02*
X57482450Y-77591400D01*
G75*
G02*
X57701200Y-77810150I0J-218750D01*
G01*
X57701200Y-78247650D01*
G75*
G02*
X57482450Y-78466400I-218750J0D01*
G01*
X56969950Y-78466400D01*
G75*
G02*
X56751200Y-78247650I0J218750D01*
G01*
X56751200Y-77810150D01*
G75*
G02*
X56969950Y-77591400I218750J0D01*
G01*
G37*
G36*
G01*
X56969950Y-76016400D02*
X57482450Y-76016400D01*
G75*
G02*
X57701200Y-76235150I0J-218750D01*
G01*
X57701200Y-76672650D01*
G75*
G02*
X57482450Y-76891400I-218750J0D01*
G01*
X56969950Y-76891400D01*
G75*
G02*
X56751200Y-76672650I0J218750D01*
G01*
X56751200Y-76235150D01*
G75*
G02*
X56969950Y-76016400I218750J0D01*
G01*
G37*
%TD*%
D13*
%TO.C,Q4*%
X75166400Y-70751700D03*
X75166400Y-71701700D03*
X75166400Y-69801700D03*
X72966400Y-69801700D03*
X72966400Y-70751700D03*
X72966400Y-71701700D03*
%TD*%
%TO.C,Q3*%
X69032300Y-70802500D03*
X69032300Y-71752500D03*
X69032300Y-69852500D03*
X66832300Y-69852500D03*
X66832300Y-70802500D03*
X66832300Y-71752500D03*
%TD*%
%TO.C,Q2*%
X63368100Y-70713600D03*
X63368100Y-71663600D03*
X63368100Y-69763600D03*
X61168100Y-69763600D03*
X61168100Y-70713600D03*
X61168100Y-71663600D03*
%TD*%
%TO.C,Q1*%
X57627700Y-70662800D03*
X57627700Y-71612800D03*
X57627700Y-69712800D03*
X55427700Y-69712800D03*
X55427700Y-70662800D03*
X55427700Y-71612800D03*
%TD*%
D18*
%TO.C,J1*%
X240408700Y-92786200D03*
X242908700Y-92786200D03*
X244908700Y-92786200D03*
D19*
X247408700Y-92786200D03*
D20*
X237338700Y-95496200D03*
X250478700Y-95496200D03*
%TD*%
%TO.C,C2*%
G36*
G01*
X56720450Y-83520800D02*
X56207950Y-83520800D01*
G75*
G02*
X55989200Y-83302050I0J218750D01*
G01*
X55989200Y-82864550D01*
G75*
G02*
X56207950Y-82645800I218750J0D01*
G01*
X56720450Y-82645800D01*
G75*
G02*
X56939200Y-82864550I0J-218750D01*
G01*
X56939200Y-83302050D01*
G75*
G02*
X56720450Y-83520800I-218750J0D01*
G01*
G37*
G36*
G01*
X56720450Y-85095800D02*
X56207950Y-85095800D01*
G75*
G02*
X55989200Y-84877050I0J218750D01*
G01*
X55989200Y-84439550D01*
G75*
G02*
X56207950Y-84220800I218750J0D01*
G01*
X56720450Y-84220800D01*
G75*
G02*
X56939200Y-84439550I0J-218750D01*
G01*
X56939200Y-84877050D01*
G75*
G02*
X56720450Y-85095800I-218750J0D01*
G01*
G37*
%TD*%
M02*
